<!--This work is licensed under a Creative Commons Attribution-ShareAlike 4.0 International License (CC BY-SA) with Design Exception 1.0-->
<eagle version="7.1.0">
<drawing>
<settings>
<setting alwaysvectorfont="no"/>
<setting verticaltext="up"/>
</settings>
<grid distance="0.1" unitdist="inch" unit="inch" style="lines" multiple="1" display="no" altdistance="0.01" altunitdist="inch" altunit="inch"/>
<layers>
<layer number="1" name="Top" color="4" fill="1" visible="yes" active="yes"/>
<layer number="16" name="Bottom" color="1" fill="1" visible="yes" active="yes"/>
<layer number="17" name="Pads" color="2" fill="1" visible="yes" active="yes"/>
<layer number="18" name="Vias" color="2" fill="1" visible="yes" active="yes"/>
<layer number="19" name="Unrouted" color="6" fill="1" visible="yes" active="yes"/>
<layer number="20" name="Dimension" color="15" fill="1" visible="yes" active="yes"/>
<layer number="21" name="tPlace" color="7" fill="1" visible="yes" active="yes"/>
<layer number="22" name="bPlace" color="7" fill="1" visible="yes" active="yes"/>
<layer number="23" name="tOrigins" color="15" fill="1" visible="yes" active="yes"/>
<layer number="24" name="bOrigins" color="15" fill="1" visible="yes" active="yes"/>
<layer number="25" name="tNames" color="7" fill="1" visible="yes" active="yes"/>
<layer number="26" name="bNames" color="7" fill="1" visible="yes" active="yes"/>
<layer number="27" name="tValues" color="7" fill="1" visible="yes" active="yes"/>
<layer number="28" name="bValues" color="7" fill="1" visible="yes" active="yes"/>
<layer number="29" name="tStop" color="7" fill="3" visible="yes" active="yes"/>
<layer number="30" name="bStop" color="7" fill="6" visible="no" active="yes"/>
<layer number="31" name="tCream" color="7" fill="4" visible="yes" active="yes"/>
<layer number="32" name="bCream" color="7" fill="5" visible="no" active="yes"/>
<layer number="33" name="tFinish" color="6" fill="3" visible="no" active="yes"/>
<layer number="34" name="bFinish" color="6" fill="6" visible="no" active="yes"/>
<layer number="35" name="tGlue" color="7" fill="4" visible="no" active="yes"/>
<layer number="36" name="bGlue" color="7" fill="5" visible="no" active="yes"/>
<layer number="37" name="tTest" color="7" fill="1" visible="no" active="yes"/>
<layer number="38" name="bTest" color="7" fill="1" visible="no" active="yes"/>
<layer number="39" name="tKeepout" color="4" fill="11" visible="yes" active="yes"/>
<layer number="40" name="bKeepout" color="1" fill="11" visible="yes" active="yes"/>
<layer number="41" name="tRestrict" color="4" fill="10" visible="yes" active="yes"/>
<layer number="42" name="bRestrict" color="1" fill="10" visible="yes" active="yes"/>
<layer number="43" name="vRestrict" color="2" fill="10" visible="yes" active="yes"/>
<layer number="44" name="Drills" color="7" fill="1" visible="no" active="yes"/>
<layer number="45" name="Holes" color="7" fill="1" visible="no" active="yes"/>
<layer number="46" name="Milling" color="3" fill="1" visible="no" active="yes"/>
<layer number="47" name="Measures" color="7" fill="1" visible="no" active="yes"/>
<layer number="48" name="Document" color="7" fill="1" visible="yes" active="yes"/>
<layer number="49" name="Reference" color="7" fill="1" visible="yes" active="yes"/>
<layer number="51" name="tDocu" color="7" fill="1" visible="yes" active="yes"/>
<layer number="52" name="bDocu" color="7" fill="1" visible="yes" active="yes"/>
<layer number="90" name="Modules" color="5" fill="1" visible="yes" active="yes"/>
<layer number="91" name="Nets" color="2" fill="1" visible="yes" active="yes"/>
<layer number="92" name="Busses" color="1" fill="1" visible="yes" active="yes"/>
<layer number="93" name="Pins" color="2" fill="1" visible="yes" active="yes"/>
<layer number="94" name="Symbols" color="4" fill="1" visible="yes" active="yes"/>
<layer number="95" name="Names" color="7" fill="1" visible="yes" active="yes"/>
<layer number="96" name="Values" color="7" fill="1" visible="yes" active="yes"/>
<layer number="97" name="Info" color="7" fill="1" visible="yes" active="yes"/>
<layer number="98" name="Guide" color="6" fill="1" visible="yes" active="yes"/>
</layers>
<library>
<packages>
<package name="DIP787W46P254L927H533Q8">
<wire x1="-5.13" y1="-5.21" x2="5.13" y2="-5.21" width="0.05" layer="39"/>
<wire x1="5.13" y1="-5.21" x2="5.13" y2="5.21" width="0.05" layer="39"/>
<wire x1="5.13" y1="5.21" x2="-5.13" y2="5.21" width="0.05" layer="39"/>
<wire x1="-5.13" y1="5.21" x2="-5.13" y2="-5.21" width="0.05" layer="39"/>
<text x="-13.6956" y="-16.8947" size="3.35789" layer="27">&gt;VALUE</text>
<text x="-14.082" y="14.3304" size="3.50009" layer="25">&gt;NAME</text>
<wire x1="-3.18" y1="-4.8" x2="-3.18" y2="4.8" width="0.127" layer="51"/>
<wire x1="-3.18" y1="4.8" x2="3.18" y2="4.8" width="0.127" layer="21"/>
<wire x1="3.18" y1="4.8" x2="3.18" y2="-4.8" width="0.127" layer="51"/>
<wire x1="3.18" y1="-4.8" x2="-3.18" y2="-4.8" width="0.127" layer="21"/>
<circle x="-2.27" y="4.05" radius="0.385875" width="0.127" layer="51"/>
<circle x="-4.85" y="4.85" radius="0.1" width="0.2" layer="21"/>
<pad name="3" x="-3.935" y="-1.27" drill="0.8"/>
<pad name="2" x="-3.935" y="1.27" drill="0.8"/>
<pad name="4" x="-3.935" y="-3.81" drill="0.8"/>
<pad name="1" x="-3.935" y="3.81" drill="0.8" shape="square"/>
<pad name="5" x="3.935" y="-3.81" drill="0.8"/>
<pad name="8" x="3.935" y="3.81" drill="0.8"/>
<pad name="6" x="3.935" y="-1.27" drill="0.8"/>
<pad name="7" x="3.935" y="1.27" drill="0.8"/>
</package>
</packages>
<symbols>
</symbols>
<devicesets>
</devicesets>
</library>
</drawing>
</eagle>
