<?xml version="1.0" encoding="utf-8"?>
<!DOCTYPE eagle SYSTEM "eagle.dtd">
<eagle version="9.6.1">
<drawing>
<settings>
<setting alwaysvectorfont="no"/>
<setting verticaltext="up"/>
</settings>
<grid distance="0.5" unitdist="mm" unit="mm" style="lines" multiple="1" display="no" altdistance="5" altunitdist="mil" altunit="mil"/>
<layers>
<layer number="1" name="Top" color="4" fill="1" visible="yes" active="yes"/>
<layer number="16" name="Bottom" color="1" fill="1" visible="yes" active="yes"/>
<layer number="17" name="Pads" color="2" fill="1" visible="yes" active="yes"/>
<layer number="18" name="Vias" color="2" fill="1" visible="yes" active="yes"/>
<layer number="19" name="Unrouted" color="6" fill="1" visible="yes" active="yes"/>
<layer number="20" name="Dimension" color="24" fill="1" visible="yes" active="yes"/>
<layer number="21" name="tPlace" color="7" fill="1" visible="yes" active="yes"/>
<layer number="22" name="bPlace" color="7" fill="1" visible="yes" active="yes"/>
<layer number="23" name="tOrigins" color="15" fill="1" visible="yes" active="yes"/>
<layer number="24" name="bOrigins" color="15" fill="1" visible="yes" active="yes"/>
<layer number="25" name="tNames" color="7" fill="1" visible="yes" active="yes"/>
<layer number="26" name="bNames" color="7" fill="1" visible="yes" active="yes"/>
<layer number="27" name="tValues" color="7" fill="1" visible="yes" active="yes"/>
<layer number="28" name="bValues" color="7" fill="1" visible="yes" active="yes"/>
<layer number="29" name="tStop" color="7" fill="3" visible="yes" active="yes"/>
<layer number="30" name="bStop" color="7" fill="6" visible="yes" active="yes"/>
<layer number="31" name="tCream" color="7" fill="4" visible="yes" active="yes"/>
<layer number="32" name="bCream" color="7" fill="5" visible="yes" active="yes"/>
<layer number="33" name="tFinish" color="6" fill="3" visible="yes" active="yes"/>
<layer number="34" name="bFinish" color="6" fill="6" visible="yes" active="yes"/>
<layer number="35" name="tGlue" color="7" fill="4" visible="yes" active="yes"/>
<layer number="36" name="bGlue" color="7" fill="5" visible="yes" active="yes"/>
<layer number="37" name="tTest" color="7" fill="1" visible="yes" active="yes"/>
<layer number="38" name="bTest" color="7" fill="1" visible="yes" active="yes"/>
<layer number="39" name="tKeepout" color="4" fill="11" visible="yes" active="yes"/>
<layer number="40" name="bKeepout" color="1" fill="11" visible="yes" active="yes"/>
<layer number="41" name="tRestrict" color="4" fill="10" visible="yes" active="yes"/>
<layer number="42" name="bRestrict" color="1" fill="10" visible="yes" active="yes"/>
<layer number="43" name="vRestrict" color="2" fill="10" visible="yes" active="yes"/>
<layer number="44" name="Drills" color="7" fill="1" visible="yes" active="yes"/>
<layer number="45" name="Holes" color="7" fill="1" visible="yes" active="yes"/>
<layer number="46" name="Milling" color="3" fill="1" visible="yes" active="yes"/>
<layer number="47" name="Measures" color="7" fill="1" visible="yes" active="yes"/>
<layer number="48" name="Document" color="7" fill="1" visible="yes" active="yes"/>
<layer number="49" name="Reference" color="7" fill="1" visible="yes" active="yes"/>
<layer number="50" name="dxf" color="7" fill="1" visible="no" active="no"/>
<layer number="51" name="tDocu" color="7" fill="1" visible="yes" active="yes"/>
<layer number="52" name="bDocu" color="7" fill="1" visible="yes" active="yes"/>
<layer number="53" name="tGND_GNDA" color="7" fill="9" visible="no" active="no"/>
<layer number="54" name="bGND_GNDA" color="1" fill="9" visible="no" active="no"/>
<layer number="56" name="wert" color="7" fill="1" visible="no" active="no"/>
<layer number="57" name="tCAD" color="7" fill="1" visible="no" active="no"/>
<layer number="88" name="SimResults" color="9" fill="1" visible="no" active="no"/>
<layer number="89" name="SimProbes" color="9" fill="1" visible="no" active="no"/>
<layer number="90" name="Modules" color="5" fill="1" visible="no" active="no"/>
<layer number="91" name="Nets" color="2" fill="1" visible="no" active="no"/>
<layer number="92" name="Busses" color="1" fill="1" visible="no" active="no"/>
<layer number="93" name="Pins" color="2" fill="1" visible="no" active="no"/>
<layer number="94" name="Symbols" color="4" fill="1" visible="no" active="no"/>
<layer number="95" name="Names" color="7" fill="1" visible="no" active="no"/>
<layer number="96" name="Values" color="7" fill="1" visible="no" active="no"/>
<layer number="97" name="Info" color="7" fill="1" visible="no" active="no"/>
<layer number="98" name="Guide" color="6" fill="1" visible="no" active="no"/>
<layer number="99" name="SpiceOrder" color="5" fill="1" visible="no" active="no"/>
<layer number="100" name="Muster" color="7" fill="1" visible="no" active="no"/>
<layer number="101" name="Patch_Top" color="12" fill="4" visible="yes" active="yes"/>
<layer number="102" name="Vscore" color="7" fill="1" visible="yes" active="yes"/>
<layer number="103" name="tMap" color="7" fill="1" visible="yes" active="yes"/>
<layer number="104" name="Name" color="16" fill="1" visible="yes" active="yes"/>
<layer number="105" name="tPlate" color="7" fill="1" visible="yes" active="yes"/>
<layer number="106" name="bPlate" color="7" fill="1" visible="yes" active="yes"/>
<layer number="107" name="Crop" color="7" fill="1" visible="yes" active="yes"/>
<layer number="108" name="tplace-old" color="10" fill="1" visible="yes" active="yes"/>
<layer number="109" name="ref-old" color="11" fill="1" visible="yes" active="yes"/>
<layer number="110" name="fp0" color="7" fill="1" visible="yes" active="yes"/>
<layer number="111" name="LPC17xx" color="7" fill="1" visible="yes" active="yes"/>
<layer number="112" name="tSilk" color="7" fill="1" visible="yes" active="yes"/>
<layer number="113" name="IDFDebug" color="4" fill="1" visible="yes" active="yes"/>
<layer number="116" name="Patch_BOT" color="9" fill="4" visible="yes" active="yes"/>
<layer number="121" name="_tsilk" color="7" fill="1" visible="yes" active="yes"/>
<layer number="122" name="_bsilk" color="7" fill="1" visible="yes" active="yes"/>
<layer number="123" name="tTestmark" color="7" fill="1" visible="yes" active="yes"/>
<layer number="124" name="bTestmark" color="7" fill="1" visible="yes" active="yes"/>
<layer number="125" name="_tNames" color="7" fill="1" visible="yes" active="yes"/>
<layer number="126" name="_bNames" color="7" fill="1" visible="yes" active="yes"/>
<layer number="127" name="_tValues" color="7" fill="1" visible="yes" active="yes"/>
<layer number="128" name="_bValues" color="7" fill="1" visible="yes" active="yes"/>
<layer number="131" name="tAdjust" color="7" fill="1" visible="yes" active="yes"/>
<layer number="132" name="bAdjust" color="7" fill="1" visible="yes" active="yes"/>
<layer number="144" name="Drill_legend" color="7" fill="1" visible="yes" active="yes"/>
<layer number="150" name="Notes" color="7" fill="1" visible="yes" active="yes"/>
<layer number="151" name="HeatSink" color="7" fill="1" visible="yes" active="yes"/>
<layer number="152" name="_bDocu" color="7" fill="1" visible="yes" active="yes"/>
<layer number="153" name="FabDoc1" color="7" fill="1" visible="yes" active="yes"/>
<layer number="154" name="FabDoc2" color="7" fill="1" visible="yes" active="yes"/>
<layer number="155" name="FabDoc3" color="7" fill="1" visible="yes" active="yes"/>
<layer number="199" name="Contour" color="7" fill="1" visible="yes" active="yes"/>
<layer number="200" name="200bmp" color="1" fill="10" visible="yes" active="yes"/>
<layer number="201" name="201bmp" color="2" fill="10" visible="yes" active="yes"/>
<layer number="202" name="202bmp" color="3" fill="10" visible="yes" active="yes"/>
<layer number="203" name="203bmp" color="4" fill="10" visible="yes" active="yes"/>
<layer number="204" name="204bmp" color="5" fill="10" visible="yes" active="yes"/>
<layer number="205" name="205bmp" color="6" fill="10" visible="yes" active="yes"/>
<layer number="206" name="206bmp" color="7" fill="10" visible="yes" active="yes"/>
<layer number="207" name="207bmp" color="8" fill="10" visible="yes" active="yes"/>
<layer number="208" name="208bmp" color="9" fill="10" visible="yes" active="yes"/>
<layer number="209" name="209bmp" color="7" fill="1" visible="yes" active="yes"/>
<layer number="210" name="210bmp" color="7" fill="1" visible="yes" active="yes"/>
<layer number="211" name="211bmp" color="7" fill="1" visible="yes" active="yes"/>
<layer number="212" name="212bmp" color="7" fill="1" visible="yes" active="yes"/>
<layer number="213" name="213bmp" color="7" fill="1" visible="yes" active="yes"/>
<layer number="214" name="214bmp" color="7" fill="1" visible="yes" active="yes"/>
<layer number="215" name="215bmp" color="7" fill="1" visible="yes" active="yes"/>
<layer number="216" name="216bmp" color="7" fill="1" visible="yes" active="yes"/>
<layer number="217" name="217bmp" color="18" fill="1" visible="no" active="no"/>
<layer number="218" name="218bmp" color="19" fill="1" visible="no" active="no"/>
<layer number="219" name="219bmp" color="20" fill="1" visible="no" active="no"/>
<layer number="220" name="220bmp" color="21" fill="1" visible="no" active="no"/>
<layer number="221" name="221bmp" color="22" fill="1" visible="no" active="no"/>
<layer number="222" name="222bmp" color="23" fill="1" visible="no" active="no"/>
<layer number="223" name="223bmp" color="24" fill="1" visible="no" active="no"/>
<layer number="224" name="224bmp" color="25" fill="1" visible="no" active="no"/>
<layer number="225" name="225bmp" color="7" fill="1" visible="yes" active="yes"/>
<layer number="226" name="226bmp" color="7" fill="1" visible="yes" active="yes"/>
<layer number="227" name="227bmp" color="7" fill="1" visible="yes" active="yes"/>
<layer number="228" name="228bmp" color="7" fill="1" visible="yes" active="yes"/>
<layer number="229" name="229bmp" color="7" fill="1" visible="yes" active="yes"/>
<layer number="230" name="230bmp" color="7" fill="1" visible="yes" active="yes"/>
<layer number="231" name="231bmp" color="7" fill="1" visible="yes" active="yes"/>
<layer number="248" name="Housing" color="7" fill="1" visible="yes" active="yes"/>
<layer number="249" name="Edge" color="7" fill="1" visible="yes" active="yes"/>
<layer number="250" name="Descript" color="3" fill="1" visible="no" active="no"/>
<layer number="251" name="SMDround" color="12" fill="11" visible="no" active="no"/>
<layer number="254" name="cooling" color="7" fill="1" visible="yes" active="yes"/>
</layers>
<board>
<plain>
<wire x1="0" y1="0" x2="99.97" y2="0" width="0" layer="20"/>
<wire x1="99.97" y1="0" x2="99.97" y2="80" width="0" layer="20"/>
<wire x1="99.97" y1="80" x2="0" y2="80" width="0" layer="20"/>
<wire x1="0" y1="80" x2="0" y2="0" width="0" layer="20"/>
<hole x="3" y="77" drill="3.5"/>
<hole x="45" y="77" drill="3.5"/>
<hole x="3" y="3" drill="3.5"/>
<hole x="75" y="3.5" drill="3.5"/>
<text x="46" y="58" size="2.54" layer="1" align="top-left">Minibike
Motor Driver
Nick Lee 2020</text>
<text x="4" y="19.5" size="1.27" layer="1" align="top-center">0.1uF</text>
<text x="16" y="20.5" size="1.27" layer="1" align="top-center">1uF</text>
<text x="17" y="63.5" size="1.27" layer="1" align="top-center">1uF</text>
<text x="49" y="73" size="3.81" layer="1" align="top-center">-</text>
<text x="66" y="63.5" size="2.54" layer="16" rot="MR0" align="top-left">Minibike
Motor Driver
Nick Lee 2020</text>
</plain>
<libraries>
<library name="capacitor-wima" urn="urn:adsk.eagle:library:116">
<description>&lt;b&gt;WIMA Capacitors&lt;/b&gt;&lt;p&gt;
&lt;author&gt;Created by librarian@cadsoft.de&lt;/author&gt;</description>
<packages>
<package name="C5B3" urn="urn:adsk.eagle:footprint:5380/1" library_version="2">
<description>&lt;B&gt;MKS2&lt;/B&gt;, 7.5 x 3 mm, grid 5.08 mm</description>
<wire x1="-0.3048" y1="0.635" x2="-0.3048" y2="0" width="0.3048" layer="21"/>
<wire x1="-0.3048" y1="0" x2="-0.3048" y2="-0.635" width="0.3048" layer="21"/>
<wire x1="-0.3048" y1="0" x2="-1.524" y2="0" width="0.1524" layer="21"/>
<wire x1="0.3302" y1="0.635" x2="0.3302" y2="0" width="0.3048" layer="21"/>
<wire x1="0.3302" y1="0" x2="0.3302" y2="-0.635" width="0.3048" layer="21"/>
<wire x1="0.3302" y1="0" x2="1.524" y2="0" width="0.1524" layer="21"/>
<wire x1="-3.683" y1="1.27" x2="-3.683" y2="-1.27" width="0.1524" layer="21"/>
<wire x1="-3.429" y1="-1.524" x2="3.429" y2="-1.524" width="0.1524" layer="21"/>
<wire x1="3.683" y1="-1.27" x2="3.683" y2="1.27" width="0.1524" layer="21"/>
<wire x1="3.429" y1="1.524" x2="-3.429" y2="1.524" width="0.1524" layer="21"/>
<wire x1="3.429" y1="1.524" x2="3.683" y2="1.27" width="0.1524" layer="21" curve="-90"/>
<wire x1="3.429" y1="-1.524" x2="3.683" y2="-1.27" width="0.1524" layer="21" curve="90"/>
<wire x1="-3.683" y1="-1.27" x2="-3.429" y2="-1.524" width="0.1524" layer="21" curve="90"/>
<wire x1="-3.683" y1="1.27" x2="-3.429" y2="1.524" width="0.1524" layer="21" curve="-90"/>
<pad name="1" x="-2.54" y="0" drill="0.8128" diameter="1.6002" shape="octagon"/>
<pad name="2" x="2.54" y="0" drill="0.8128" diameter="1.6002" shape="octagon"/>
<text x="-2.54" y="1.778" size="1.27" layer="25" ratio="10">&gt;NAME</text>
<text x="-2.54" y="-3.048" size="1.27" layer="27" ratio="10">&gt;VALUE</text>
</package>
</packages>
<packages3d>
<package3d name="C5B3" urn="urn:adsk.eagle:package:5433/1" type="box" library_version="2">
<description>MKS2, 7.5 x 3 mm, grid 5.08 mm</description>
<packageinstances>
<packageinstance name="C5B3"/>
</packageinstances>
</package3d>
</packages3d>
</library>
<library name="rcl" urn="urn:adsk.eagle:library:334">
<description>&lt;b&gt;Resistors, Capacitors, Inductors&lt;/b&gt;&lt;p&gt;
Based on the previous libraries:
&lt;ul&gt;
&lt;li&gt;r.lbr
&lt;li&gt;cap.lbr 
&lt;li&gt;cap-fe.lbr
&lt;li&gt;captant.lbr
&lt;li&gt;polcap.lbr
&lt;li&gt;ipc-smd.lbr
&lt;/ul&gt;
All SMD packages are defined according to the IPC specifications and  CECC&lt;p&gt;
&lt;author&gt;Created by librarian@cadsoft.de&lt;/author&gt;&lt;p&gt;
&lt;p&gt;
for Electrolyt Capacitors see also :&lt;p&gt;
www.bccomponents.com &lt;p&gt;
www.panasonic.com&lt;p&gt;
www.kemet.com&lt;p&gt;
http://www.secc.co.jp/pdf/os_e/2004/e_os_all.pdf &lt;b&gt;(SANYO)&lt;/b&gt;
&lt;p&gt;
for trimmer refence see : &lt;u&gt;www.electrospec-inc.com/cross_references/trimpotcrossref.asp&lt;/u&gt;&lt;p&gt;

&lt;table border=0 cellspacing=0 cellpadding=0 width="100%" cellpaddding=0&gt;
&lt;tr valign="top"&gt;

&lt;! &lt;td width="10"&gt;&amp;nbsp;&lt;/td&gt;
&lt;td width="90%"&gt;

&lt;b&gt;&lt;font color="#0000FF" size="4"&gt;TRIM-POT CROSS REFERENCE&lt;/font&gt;&lt;/b&gt;
&lt;P&gt;
&lt;TABLE BORDER=0 CELLSPACING=1 CELLPADDING=2&gt;
  &lt;TR&gt;
    &lt;TD COLSPAN=8&gt;
      &lt;FONT SIZE=3 FACE=ARIAL&gt;&lt;B&gt;RECTANGULAR MULTI-TURN&lt;/B&gt;&lt;/FONT&gt;
    &lt;/TD&gt;
  &lt;/TR&gt;
  &lt;TR&gt;
    &lt;TD ALIGN=CENTER&gt;
      &lt;B&gt;
      &lt;FONT SIZE=3 FACE=ARIAL color="#FF0000"&gt;BOURNS&lt;/FONT&gt;
      &lt;/B&gt;
    &lt;/TD&gt;
    &lt;TD ALIGN=CENTER&gt;
      &lt;B&gt;
      &lt;FONT SIZE=3 FACE=ARIAL color="#FF0000"&gt;BI&amp;nbsp;TECH&lt;/FONT&gt;
      &lt;/B&gt;
    &lt;/TD&gt;
    &lt;TD ALIGN=CENTER&gt;
      &lt;B&gt;
      &lt;FONT SIZE=3 FACE=ARIAL color="#FF0000"&gt;DALE-VISHAY&lt;/FONT&gt;
      &lt;/B&gt;
    &lt;/TD&gt;
    &lt;TD ALIGN=CENTER&gt;
      &lt;B&gt;
      &lt;FONT SIZE=3 FACE=ARIAL color="#FF0000"&gt;PHILIPS/MEPCO&lt;/FONT&gt;
      &lt;/B&gt;
    &lt;/TD&gt;
    &lt;TD ALIGN=CENTER&gt;
      &lt;B&gt;
      &lt;FONT SIZE=3 FACE=ARIAL color="#FF0000"&gt;MURATA&lt;/FONT&gt;
      &lt;/B&gt;
    &lt;/TD&gt;
    &lt;TD ALIGN=CENTER&gt;
      &lt;B&gt;
      &lt;FONT SIZE=3 FACE=ARIAL color="#FF0000"&gt;PANASONIC&lt;/FONT&gt;
      &lt;/B&gt;
    &lt;/TD&gt;
    &lt;TD ALIGN=CENTER&gt;
      &lt;B&gt;
      &lt;FONT SIZE=3 FACE=ARIAL color="#FF0000"&gt;SPECTROL&lt;/FONT&gt;
      &lt;/B&gt;
    &lt;/TD&gt;
    &lt;TD ALIGN=CENTER&gt;
      &lt;B&gt;
      &lt;FONT SIZE=3 FACE=ARIAL color="#FF0000"&gt;MILSPEC&lt;/FONT&gt;
      &lt;/B&gt;
    &lt;/TD&gt;&lt;TD&gt;&amp;nbsp;&lt;/TD&gt;
  &lt;/TR&gt;
  &lt;TR&gt;
    &lt;TD BGCOLOR="#cccccc" ALIGN=CENTER&gt;&lt;FONT FACE=ARIAL SIZE=3 &gt;
      3005P&lt;BR&gt;
      3006P&lt;BR&gt;
      3006W&lt;BR&gt;
      3006Y&lt;BR&gt;
      3009P&lt;BR&gt;
      3009W&lt;BR&gt;
      3009Y&lt;BR&gt;
      3057J&lt;BR&gt;
      3057L&lt;BR&gt;
      3057P&lt;BR&gt;
      3057Y&lt;BR&gt;
      3059J&lt;BR&gt;
      3059L&lt;BR&gt;
      3059P&lt;BR&gt;
      3059Y&lt;BR&gt;&lt;/FONT&gt;
    &lt;/TD&gt;
    &lt;TD BGCOLOR="#cccccc" ALIGN=CENTER&gt;&lt;FONT FACE=ARIAL SIZE=3&gt;
      -&lt;BR&gt;
      89P&lt;BR&gt;
      89W&lt;BR&gt;
      89X&lt;BR&gt;
      89PH&lt;BR&gt;
      76P&lt;BR&gt;
      89XH&lt;BR&gt;
      78SLT&lt;BR&gt;
      78L&amp;nbsp;ALT&lt;BR&gt;
      56P&amp;nbsp;ALT&lt;BR&gt;
      78P&amp;nbsp;ALT&lt;BR&gt;
      T8S&lt;BR&gt;
      78L&lt;BR&gt;
      56P&lt;BR&gt;
      78P&lt;BR&gt;&lt;/FONT&gt;
    &lt;/TD&gt;
    &lt;TD BGCOLOR="#cccccc" ALIGN=CENTER&gt;&lt;FONT FACE=ARIAL SIZE=3&gt;
      -&lt;BR&gt;
      T18/784&lt;BR&gt;
      783&lt;BR&gt;
      781&lt;BR&gt;
      -&lt;BR&gt;
      -&lt;BR&gt;
      -&lt;BR&gt;
      2199&lt;BR&gt;
      1697/1897&lt;BR&gt;
      1680/1880&lt;BR&gt;
      2187&lt;BR&gt;
      -&lt;BR&gt;
      -&lt;BR&gt;
      -&lt;BR&gt;
      -&lt;BR&gt;&lt;/FONT&gt;
    &lt;/TD&gt;
    &lt;TD BGCOLOR="#cccccc" ALIGN=CENTER&gt;&lt;FONT FACE=ARIAL SIZE=3&gt;
      -&lt;BR&gt;
      8035EKP/CT20/RJ-20P&lt;BR&gt;
      -&lt;BR&gt;
      RJ-20X&lt;BR&gt;
      -&lt;BR&gt;
      -&lt;BR&gt;
      -&lt;BR&gt;
      1211L&lt;BR&gt;
      8012EKQ&amp;nbsp;ALT&lt;BR&gt;
      8012EKR&amp;nbsp;ALT&lt;BR&gt;
      1211P&lt;BR&gt;
      8012EKJ&lt;BR&gt;
      8012EKL&lt;BR&gt;
      8012EKQ&lt;BR&gt;
      8012EKR&lt;BR&gt;&lt;/FONT&gt;
    &lt;/TD&gt;
    &lt;TD BGCOLOR="#cccccc" ALIGN=CENTER&gt;&lt;FONT FACE=ARIAL SIZE=3&gt;
      -&lt;BR&gt;
      2101P&lt;BR&gt;
      2101W&lt;BR&gt;
      2101Y&lt;BR&gt;
      -&lt;BR&gt;
      -&lt;BR&gt;
      -&lt;BR&gt;
      -&lt;BR&gt;
      -&lt;BR&gt;
      -&lt;BR&gt;
      -&lt;BR&gt;
      -&lt;BR&gt;
      2102L&lt;BR&gt;
      2102S&lt;BR&gt;
      2102Y&lt;BR&gt;&lt;/FONT&gt;
    &lt;/TD&gt;
    &lt;TD BGCOLOR="#cccccc" ALIGN=CENTER&gt;&lt;FONT FACE=ARIAL SIZE=3&gt;
      -&lt;BR&gt;
      EVMCOG&lt;BR&gt;
      -&lt;BR&gt;
      -&lt;BR&gt;
      -&lt;BR&gt;
      -&lt;BR&gt;
      -&lt;BR&gt;
      -&lt;BR&gt;
      -&lt;BR&gt;
      -&lt;BR&gt;
      -&lt;BR&gt;
      -&lt;BR&gt;
      -&lt;BR&gt;
      -&lt;BR&gt;
      -&lt;BR&gt;&lt;/FONT&gt;
    &lt;/TD&gt;
    &lt;TD BGCOLOR="#cccccc" ALIGN=CENTER&gt;&lt;FONT FACE=ARIAL SIZE=3&gt;
      -&lt;BR&gt;
      43P&lt;BR&gt;
      43W&lt;BR&gt;
      43Y&lt;BR&gt;
      -&lt;BR&gt;
      -&lt;BR&gt;
      -&lt;BR&gt;
      -&lt;BR&gt;
      40L&lt;BR&gt;
      40P&lt;BR&gt;
      40Y&lt;BR&gt;
      70Y-T602&lt;BR&gt;
      70L&lt;BR&gt;
      70P&lt;BR&gt;
      70Y&lt;BR&gt;&lt;/FONT&gt;
    &lt;/TD&gt;
    &lt;TD BGCOLOR="#cccccc" ALIGN=CENTER&gt;&lt;FONT FACE=ARIAL SIZE=3&gt;
      -&lt;BR&gt;
      -&lt;BR&gt;
      -&lt;BR&gt;
      -&lt;BR&gt;
      -&lt;BR&gt;
      -&lt;BR&gt;
      -&lt;BR&gt;
      -&lt;BR&gt;
      RT/RTR12&lt;BR&gt;
      RT/RTR12&lt;BR&gt;
      RT/RTR12&lt;BR&gt;
      -&lt;BR&gt;
      RJ/RJR12&lt;BR&gt;
      RJ/RJR12&lt;BR&gt;
      RJ/RJR12&lt;BR&gt;&lt;/FONT&gt;
    &lt;/TD&gt;
  &lt;/TR&gt;
  &lt;TR&gt;
    &lt;TD COLSPAN=8&gt;&amp;nbsp;
    &lt;/TD&gt;
  &lt;/TR&gt;
  &lt;TR&gt;
    &lt;TD COLSPAN=8&gt;
      &lt;FONT SIZE=4 FACE=ARIAL&gt;&lt;B&gt;SQUARE MULTI-TURN&lt;/B&gt;&lt;/FONT&gt;
    &lt;/TD&gt;
  &lt;/TR&gt;
  &lt;TR&gt;
   &lt;TD ALIGN=CENTER&gt;
      &lt;FONT SIZE=3 FACE=ARIAL&gt;&lt;B&gt;BOURN&lt;/B&gt;&lt;/FONT&gt;
    &lt;/TD&gt;
    &lt;TD ALIGN=CENTER&gt;
      &lt;FONT SIZE=3 FACE=ARIAL&gt;&lt;B&gt;BI&amp;nbsp;TECH&lt;/B&gt;&lt;/FONT&gt;
    &lt;/TD&gt;
    &lt;TD ALIGN=CENTER&gt;
      &lt;FONT SIZE=3 FACE=ARIAL&gt;&lt;B&gt;DALE-VISHAY&lt;/B&gt;&lt;/FONT&gt;
    &lt;/TD&gt;
    &lt;TD ALIGN=CENTER&gt;
      &lt;FONT SIZE=3 FACE=ARIAL&gt;&lt;B&gt;PHILIPS/MEPCO&lt;/B&gt;&lt;/FONT&gt;
    &lt;/TD&gt;
    &lt;TD ALIGN=CENTER&gt;
      &lt;FONT SIZE=3 FACE=ARIAL&gt;&lt;B&gt;MURATA&lt;/B&gt;&lt;/FONT&gt;
    &lt;/TD&gt;
    &lt;TD ALIGN=CENTER&gt;
      &lt;FONT SIZE=3 FACE=ARIAL&gt;&lt;B&gt;PANASONIC&lt;/B&gt;&lt;/FONT&gt;
    &lt;/TD&gt;
    &lt;TD ALIGN=CENTER&gt;
      &lt;FONT SIZE=3 FACE=ARIAL&gt;&lt;B&gt;SPECTROL&lt;/B&gt;&lt;/FONT&gt;
    &lt;/TD&gt;
    &lt;TD ALIGN=CENTER&gt;
      &lt;FONT SIZE=3 FACE=ARIAL&gt;&lt;B&gt;MILSPEC&lt;/B&gt;&lt;/FONT&gt;
    &lt;/TD&gt;
  &lt;/TR&gt;
  &lt;TR&gt;
    &lt;TD BGCOLOR="#cccccc" ALIGN=CENTER&gt;&lt;FONT FACE=ARIAL SIZE=3&gt;
      3250L&lt;BR&gt;
      3250P&lt;BR&gt;
      3250W&lt;BR&gt;
      3250X&lt;BR&gt;
      3252P&lt;BR&gt;
      3252W&lt;BR&gt;
      3252X&lt;BR&gt;
      3260P&lt;BR&gt;
      3260W&lt;BR&gt;
      3260X&lt;BR&gt;
      3262P&lt;BR&gt;
      3262W&lt;BR&gt;
      3262X&lt;BR&gt;
      3266P&lt;BR&gt;
      3266W&lt;BR&gt;
      3266X&lt;BR&gt;
      3290H&lt;BR&gt;
      3290P&lt;BR&gt;
      3290W&lt;BR&gt;
      3292P&lt;BR&gt;
      3292W&lt;BR&gt;
      3292X&lt;BR&gt;
      3296P&lt;BR&gt;
      3296W&lt;BR&gt;
      3296X&lt;BR&gt;
      3296Y&lt;BR&gt;
      3296Z&lt;BR&gt;
      3299P&lt;BR&gt;
      3299W&lt;BR&gt;
      3299X&lt;BR&gt;
      3299Y&lt;BR&gt;
      3299Z&lt;BR&gt;&lt;/FONT&gt;
    &lt;/TD&gt;
    &lt;TD BGCOLOR="#cccccc" ALIGN=CENTER&gt;&lt;FONT FACE=ARIAL SIZE=3&gt;
      -&lt;BR&gt;
      66P&amp;nbsp;ALT&lt;BR&gt;
      66W&amp;nbsp;ALT&lt;BR&gt;
      66X&amp;nbsp;ALT&lt;BR&gt;
      66P&amp;nbsp;ALT&lt;BR&gt;
      66W&amp;nbsp;ALT&lt;BR&gt;
      66X&amp;nbsp;ALT&lt;BR&gt;
      -&lt;BR&gt;
      64W&amp;nbsp;ALT&lt;BR&gt;
      -&lt;BR&gt;
      64P&amp;nbsp;ALT&lt;BR&gt;
      64W&amp;nbsp;ALT&lt;BR&gt;
      64X&amp;nbsp;ALT&lt;BR&gt;
      64P&lt;BR&gt;
      64W&lt;BR&gt;
      64X&lt;BR&gt;
      66X&amp;nbsp;ALT&lt;BR&gt;
      66P&amp;nbsp;ALT&lt;BR&gt;
      66W&amp;nbsp;ALT&lt;BR&gt;
      66P&lt;BR&gt;
      66W&lt;BR&gt;
      66X&lt;BR&gt;
      67P&lt;BR&gt;
      67W&lt;BR&gt;
      67X&lt;BR&gt;
      67Y&lt;BR&gt;
      67Z&lt;BR&gt;
      68P&lt;BR&gt;
      68W&lt;BR&gt;
      68X&lt;BR&gt;
      67Y&amp;nbsp;ALT&lt;BR&gt;
      67Z&amp;nbsp;ALT&lt;BR&gt;&lt;/FONT&gt;
    &lt;/TD&gt;
    &lt;TD BGCOLOR="#cccccc" ALIGN=CENTER&gt;&lt;FONT FACE=ARIAL SIZE=3&gt;
      5050&lt;BR&gt;
      5091&lt;BR&gt;
      5080&lt;BR&gt;
      5087&lt;BR&gt;
      -&lt;BR&gt;
      -&lt;BR&gt;
      -&lt;BR&gt;
      -&lt;BR&gt;
      -&lt;BR&gt;
      -&lt;BR&gt;
      -&lt;BR&gt;
      T63YB&lt;BR&gt;
      T63XB&lt;BR&gt;
      -&lt;BR&gt;
      -&lt;BR&gt;
      -&lt;BR&gt;
      5887&lt;BR&gt;
      5891&lt;BR&gt;
      5880&lt;BR&gt;
      -&lt;BR&gt;
      -&lt;BR&gt;
      -&lt;BR&gt;
      T93Z&lt;BR&gt;
      T93YA&lt;BR&gt;
      T93XA&lt;BR&gt;
      T93YB&lt;BR&gt;
      T93XB&lt;BR&gt;
      -&lt;BR&gt;
      -&lt;BR&gt;
      -&lt;BR&gt;
      -&lt;BR&gt;
      -&lt;BR&gt;&lt;/FONT&gt;
    &lt;/TD&gt;
    &lt;TD BGCOLOR="#cccccc" ALIGN=CENTER&gt;&lt;FONT FACE=ARIAL SIZE=3&gt;
      -&lt;BR&gt;
      -&lt;BR&gt;
      -&lt;BR&gt;
      -&lt;BR&gt;
      -&lt;BR&gt;
      -&lt;BR&gt;
      -&lt;BR&gt;
      -&lt;BR&gt;
      -&lt;BR&gt;
      -&lt;BR&gt;
      8026EKP&lt;BR&gt;
      8026EKW&lt;BR&gt;
      8026EKM&lt;BR&gt;
      8026EKP&lt;BR&gt;
      8026EKB&lt;BR&gt;
      8026EKM&lt;BR&gt;
      1309X&lt;BR&gt;
      1309P&lt;BR&gt;
      1309W&lt;BR&gt;
      8024EKP&lt;BR&gt;
      8024EKW&lt;BR&gt;
      8024EKN&lt;BR&gt;
      RJ-9P/CT9P&lt;BR&gt;
      RJ-9W&lt;BR&gt;
      RJ-9X&lt;BR&gt;
      -&lt;BR&gt;
      -&lt;BR&gt;
      -&lt;BR&gt;
      -&lt;BR&gt;
      -&lt;BR&gt;
      -&lt;BR&gt;
      -&lt;BR&gt;&lt;/FONT&gt;
    &lt;/TD&gt;
    &lt;TD BGCOLOR="#cccccc" ALIGN=CENTER&gt;&lt;FONT FACE=ARIAL SIZE=3&gt;
      -&lt;BR&gt;
      -&lt;BR&gt;
      -&lt;BR&gt;
      -&lt;BR&gt;
      -&lt;BR&gt;
      -&lt;BR&gt;
      -&lt;BR&gt;
      -&lt;BR&gt;
      -&lt;BR&gt;
      -&lt;BR&gt;
      3103P&lt;BR&gt;
      3103Y&lt;BR&gt;
      3103Z&lt;BR&gt;
      3103P&lt;BR&gt;
      3103Y&lt;BR&gt;
      3103Z&lt;BR&gt;
      -&lt;BR&gt;
      -&lt;BR&gt;
      -&lt;BR&gt;
      -&lt;BR&gt;
      -&lt;BR&gt;
      -&lt;BR&gt;
      3105P/3106P&lt;BR&gt;
      3105W/3106W&lt;BR&gt;
      3105X/3106X&lt;BR&gt;
      3105Y/3106Y&lt;BR&gt;
      3105Z/3105Z&lt;BR&gt;
      3102P&lt;BR&gt;
      3102W&lt;BR&gt;
      3102X&lt;BR&gt;
      3102Y&lt;BR&gt;
      3102Z&lt;BR&gt;&lt;/FONT&gt;
    &lt;/TD&gt;
    &lt;TD BGCOLOR="#cccccc" ALIGN=CENTER&gt;&lt;FONT FACE=ARIAL SIZE=3&gt;
      -&lt;BR&gt;
      -&lt;BR&gt;
      -&lt;BR&gt;
      -&lt;BR&gt;
      -&lt;BR&gt;
      -&lt;BR&gt;
      -&lt;BR&gt;
      -&lt;BR&gt;
      -&lt;BR&gt;
      -&lt;BR&gt;
      -&lt;BR&gt;
      -&lt;BR&gt;
      -&lt;BR&gt;
      -&lt;BR&gt;
      -&lt;BR&gt;
      -&lt;BR&gt;
      -&lt;BR&gt;
      -&lt;BR&gt;
      -&lt;BR&gt;
      -&lt;BR&gt;
      -&lt;BR&gt;
      -&lt;BR&gt;
      EVMCBG&lt;BR&gt;
      EVMCCG&lt;BR&gt;
      -&lt;BR&gt;
      -&lt;BR&gt;
      -&lt;BR&gt;
      -&lt;BR&gt;
      -&lt;BR&gt;
      -&lt;BR&gt;
      -&lt;BR&gt;
      -&lt;BR&gt;&lt;/FONT&gt;
    &lt;/TD&gt;
    &lt;TD BGCOLOR="#cccccc" ALIGN=CENTER&gt;&lt;FONT FACE=ARIAL SIZE=3&gt;
      55-1-X&lt;BR&gt;
      55-4-X&lt;BR&gt;
      55-3-X&lt;BR&gt;
      55-2-X&lt;BR&gt;
      -&lt;BR&gt;
      -&lt;BR&gt;
      -&lt;BR&gt;
      -&lt;BR&gt;
      -&lt;BR&gt;
      -&lt;BR&gt;
      -&lt;BR&gt;
      -&lt;BR&gt;
      -&lt;BR&gt;
      -&lt;BR&gt;
      -&lt;BR&gt;
      -&lt;BR&gt;
      50-2-X&lt;BR&gt;
      50-4-X&lt;BR&gt;
      50-3-X&lt;BR&gt;
      -&lt;BR&gt;
      -&lt;BR&gt;
      -&lt;BR&gt;
      64P&lt;BR&gt;
      64W&lt;BR&gt;
      64X&lt;BR&gt;
      64Y&lt;BR&gt;
      64Z&lt;BR&gt;
      -&lt;BR&gt;
      -&lt;BR&gt;
      -&lt;BR&gt;
      -&lt;BR&gt;
      -&lt;BR&gt;&lt;/FONT&gt;
    &lt;/TD&gt;
    &lt;TD BGCOLOR="#cccccc" ALIGN=CENTER&gt;&lt;FONT FACE=ARIAL SIZE=3&gt;
      RT/RTR22&lt;BR&gt;
      RT/RTR22&lt;BR&gt;
      RT/RTR22&lt;BR&gt;
      RT/RTR22&lt;BR&gt;
      RJ/RJR22&lt;BR&gt;
      RJ/RJR22&lt;BR&gt;
      RJ/RJR22&lt;BR&gt;
      RT/RTR26&lt;BR&gt;
      RT/RTR26&lt;BR&gt;
      RT/RTR26&lt;BR&gt;
      RJ/RJR26&lt;BR&gt;
      RJ/RJR26&lt;BR&gt;
      RJ/RJR26&lt;BR&gt;
      RJ/RJR26&lt;BR&gt;
      RJ/RJR26&lt;BR&gt;
      RJ/RJR26&lt;BR&gt;
      RT/RTR24&lt;BR&gt;
      RT/RTR24&lt;BR&gt;
      RT/RTR24&lt;BR&gt;
      RJ/RJR24&lt;BR&gt;
      RJ/RJR24&lt;BR&gt;
      RJ/RJR24&lt;BR&gt;
      RJ/RJR24&lt;BR&gt;
      RJ/RJR24&lt;BR&gt;
      RJ/RJR24&lt;BR&gt;
      -&lt;BR&gt;
      -&lt;BR&gt;
      -&lt;BR&gt;
      -&lt;BR&gt;
      -&lt;BR&gt;
      -&lt;BR&gt;
      -&lt;BR&gt;&lt;/FONT&gt;
    &lt;/TD&gt;
  &lt;/TR&gt;
  &lt;TR&gt;
    &lt;TD COLSPAN=8&gt;&amp;nbsp;
    &lt;/TD&gt;
  &lt;/TR&gt;
  &lt;TR&gt;
    &lt;TD COLSPAN=8&gt;
      &lt;FONT SIZE=4 FACE=ARIAL&gt;&lt;B&gt;SINGLE TURN&lt;/B&gt;&lt;/FONT&gt;
    &lt;/TD&gt;
  &lt;/TR&gt;
  &lt;TR&gt;
    &lt;TD ALIGN=CENTER&gt;
      &lt;FONT SIZE=3 FACE=ARIAL&gt;&lt;B&gt;BOURN&lt;/B&gt;&lt;/FONT&gt;
    &lt;/TD&gt;
    &lt;TD ALIGN=CENTER&gt;
      &lt;FONT SIZE=3 FACE=ARIAL&gt;&lt;B&gt;BI&amp;nbsp;TECH&lt;/B&gt;&lt;/FONT&gt;
    &lt;/TD&gt;
    &lt;TD ALIGN=CENTER&gt;
      &lt;FONT SIZE=3 FACE=ARIAL&gt;&lt;B&gt;DALE-VISHAY&lt;/B&gt;&lt;/FONT&gt;
    &lt;/TD&gt;
    &lt;TD ALIGN=CENTER&gt;
      &lt;FONT SIZE=3 FACE=ARIAL&gt;&lt;B&gt;PHILIPS/MEPCO&lt;/B&gt;&lt;/FONT&gt;
    &lt;/TD&gt;
    &lt;TD ALIGN=CENTER&gt;
      &lt;FONT SIZE=3 FACE=ARIAL&gt;&lt;B&gt;MURATA&lt;/B&gt;&lt;/FONT&gt;
    &lt;/TD&gt;
    &lt;TD ALIGN=CENTER&gt;
      &lt;FONT SIZE=3 FACE=ARIAL&gt;&lt;B&gt;PANASONIC&lt;/B&gt;&lt;/FONT&gt;
    &lt;/TD&gt;
    &lt;TD ALIGN=CENTER&gt;
      &lt;FONT SIZE=3 FACE=ARIAL&gt;&lt;B&gt;SPECTROL&lt;/B&gt;&lt;/FONT&gt;
    &lt;/TD&gt;
    &lt;TD ALIGN=CENTER&gt;
      &lt;FONT SIZE=3 FACE=ARIAL&gt;&lt;B&gt;MILSPEC&lt;/B&gt;&lt;/FONT&gt;
    &lt;/TD&gt;
  &lt;/TR&gt;
  &lt;TR&gt;
    &lt;TD BGCOLOR="#cccccc" ALIGN=CENTER&gt;&lt;FONT FACE=ARIAL SIZE=3&gt;
      3323P&lt;BR&gt;
      3323S&lt;BR&gt;
      3323W&lt;BR&gt;
      3329H&lt;BR&gt;
      3329P&lt;BR&gt;
      3329W&lt;BR&gt;
      3339H&lt;BR&gt;
      3339P&lt;BR&gt;
      3339W&lt;BR&gt;
      3352E&lt;BR&gt;
      3352H&lt;BR&gt;
      3352K&lt;BR&gt;
      3352P&lt;BR&gt;
      3352T&lt;BR&gt;
      3352V&lt;BR&gt;
      3352W&lt;BR&gt;
      3362H&lt;BR&gt;
      3362M&lt;BR&gt;
      3362P&lt;BR&gt;
      3362R&lt;BR&gt;
      3362S&lt;BR&gt;
      3362U&lt;BR&gt;
      3362W&lt;BR&gt;
      3362X&lt;BR&gt;
      3386B&lt;BR&gt;
      3386C&lt;BR&gt;
      3386F&lt;BR&gt;
      3386H&lt;BR&gt;
      3386K&lt;BR&gt;
      3386M&lt;BR&gt;
      3386P&lt;BR&gt;
      3386S&lt;BR&gt;
      3386W&lt;BR&gt;
      3386X&lt;BR&gt;&lt;/FONT&gt;
    &lt;/TD&gt;
    &lt;TD BGCOLOR="#cccccc" ALIGN=CENTER&gt;&lt;FONT FACE=ARIAL SIZE=3&gt;
      25P&lt;BR&gt;
      25S&lt;BR&gt;
      25RX&lt;BR&gt;
      82P&lt;BR&gt;
      82M&lt;BR&gt;
      82PA&lt;BR&gt;
      -&lt;BR&gt;
      -&lt;BR&gt;
      -&lt;BR&gt;
      91E&lt;BR&gt;
      91X&lt;BR&gt;
      91T&lt;BR&gt;
      91B&lt;BR&gt;
      91A&lt;BR&gt;
      91V&lt;BR&gt;
      91W&lt;BR&gt;
      25W&lt;BR&gt;
      25V&lt;BR&gt;
      25P&lt;BR&gt;
      -&lt;BR&gt;
      25S&lt;BR&gt;
      25U&lt;BR&gt;
      25RX&lt;BR&gt;
      25X&lt;BR&gt;
      72XW&lt;BR&gt;
      72XL&lt;BR&gt;
      72PM&lt;BR&gt;
      72RX&lt;BR&gt;
      -&lt;BR&gt;
      72PX&lt;BR&gt;
      72P&lt;BR&gt;
      72RXW&lt;BR&gt;
      72RXL&lt;BR&gt;
      72X&lt;BR&gt;&lt;/FONT&gt;
    &lt;/TD&gt;
    &lt;TD BGCOLOR="#cccccc" ALIGN=CENTER&gt;&lt;FONT FACE=ARIAL SIZE=3&gt;
      -&lt;BR&gt;
      -&lt;BR&gt;
      -&lt;BR&gt;
      T7YB&lt;BR&gt;
      T7YA&lt;BR&gt;
      -&lt;BR&gt;
      -&lt;BR&gt;
      -&lt;BR&gt;
      -&lt;BR&gt;
      -&lt;BR&gt;
      -&lt;BR&gt;
      -&lt;BR&gt;
      -&lt;BR&gt;
      -&lt;BR&gt;
      -&lt;BR&gt;
      -&lt;BR&gt;
      -&lt;BR&gt;
      TXD&lt;BR&gt;
      TYA&lt;BR&gt;
      TYP&lt;BR&gt;
      -&lt;BR&gt;
      TYD&lt;BR&gt;
      TX&lt;BR&gt;
      -&lt;BR&gt;
      150SX&lt;BR&gt;
      100SX&lt;BR&gt;
      102T&lt;BR&gt;
      101S&lt;BR&gt;
      190T&lt;BR&gt;
      150TX&lt;BR&gt;
      101&lt;BR&gt;
      -&lt;BR&gt;
      -&lt;BR&gt;
      101SX&lt;BR&gt;&lt;/FONT&gt;
    &lt;/TD&gt;
    &lt;TD BGCOLOR="#cccccc" ALIGN=CENTER&gt;&lt;FONT FACE=ARIAL SIZE=3&gt;
      ET6P&lt;BR&gt;
      ET6S&lt;BR&gt;
      ET6X&lt;BR&gt;
      RJ-6W/8014EMW&lt;BR&gt;
      RJ-6P/8014EMP&lt;BR&gt;
      RJ-6X/8014EMX&lt;BR&gt;
      TM7W&lt;BR&gt;
      TM7P&lt;BR&gt;
      TM7X&lt;BR&gt;
      -&lt;BR&gt;
      8017SMS&lt;BR&gt;
      -&lt;BR&gt;
      8017SMB&lt;BR&gt;
      8017SMA&lt;BR&gt;
      -&lt;BR&gt;
      -&lt;BR&gt;
      CT-6W&lt;BR&gt;
      CT-6H&lt;BR&gt;
      CT-6P&lt;BR&gt;
      CT-6R&lt;BR&gt;
      -&lt;BR&gt;
      CT-6V&lt;BR&gt;
      CT-6X&lt;BR&gt;
      -&lt;BR&gt;
      -&lt;BR&gt;
      8038EKV&lt;BR&gt;
      -&lt;BR&gt;
      8038EKX&lt;BR&gt;
      -&lt;BR&gt;
      -&lt;BR&gt;
      8038EKP&lt;BR&gt;
      8038EKZ&lt;BR&gt;
      8038EKW&lt;BR&gt;
      -&lt;BR&gt;&lt;/FONT&gt;
    &lt;/TD&gt;
    &lt;TD BGCOLOR="#cccccc" ALIGN=CENTER&gt;&lt;FONT FACE=ARIAL SIZE=3&gt;
      -&lt;BR&gt;
      -&lt;BR&gt;
      -&lt;BR&gt;
      3321H&lt;BR&gt;
      3321P&lt;BR&gt;
      3321N&lt;BR&gt;
      1102H&lt;BR&gt;
      1102P&lt;BR&gt;
      1102T&lt;BR&gt;
      RVA0911V304A&lt;BR&gt;
      -&lt;BR&gt;
      RVA0911H413A&lt;BR&gt;
      RVG0707V100A&lt;BR&gt;
      RVA0607V(H)306A&lt;BR&gt;
      RVA1214H213A&lt;BR&gt;
      -&lt;BR&gt;
      -&lt;BR&gt;
      -&lt;BR&gt;
      -&lt;BR&gt;
      -&lt;BR&gt;
      -&lt;BR&gt;
      -&lt;BR&gt;
      -&lt;BR&gt;
      -&lt;BR&gt;
      3104B&lt;BR&gt;
      3104C&lt;BR&gt;
      3104F&lt;BR&gt;
      3104H&lt;BR&gt;
      -&lt;BR&gt;
      3104M&lt;BR&gt;
      3104P&lt;BR&gt;
      3104S&lt;BR&gt;
      3104W&lt;BR&gt;
      3104X&lt;BR&gt;&lt;/FONT&gt;
    &lt;/TD&gt;
    &lt;TD BGCOLOR="#cccccc" ALIGN=CENTER&gt;&lt;FONT FACE=ARIAL SIZE=3&gt;
      EVMQ0G&lt;BR&gt;
      EVMQIG&lt;BR&gt;
      EVMQ3G&lt;BR&gt;
      EVMS0G&lt;BR&gt;
      EVMQ0G&lt;BR&gt;
      EVMG0G&lt;BR&gt;
      -&lt;BR&gt;
      -&lt;BR&gt;
      -&lt;BR&gt;
      EVMK4GA00B&lt;BR&gt;
      EVM30GA00B&lt;BR&gt;
      EVMK0GA00B&lt;BR&gt;
      EVM38GA00B&lt;BR&gt;
      EVMB6&lt;BR&gt;
      EVLQ0&lt;BR&gt;
      -&lt;BR&gt;
      EVMMSG&lt;BR&gt;
      EVMMBG&lt;BR&gt;
      EVMMAG&lt;BR&gt;
      -&lt;BR&gt;
      -&lt;BR&gt;
      EVMMCS&lt;BR&gt;
      -&lt;BR&gt;
      -&lt;BR&gt;
      -&lt;BR&gt;
      -&lt;BR&gt;
      -&lt;BR&gt;
      EVMM1&lt;BR&gt;
      -&lt;BR&gt;
      -&lt;BR&gt;
      EVMM0&lt;BR&gt;
      -&lt;BR&gt;
      -&lt;BR&gt;
      EVMM3&lt;BR&gt;&lt;/FONT&gt;
    &lt;/TD&gt;
    &lt;TD BGCOLOR="#cccccc" ALIGN=CENTER&gt;&lt;FONT FACE=ARIAL SIZE=3&gt;
      -&lt;BR&gt;
      -&lt;BR&gt;
      -&lt;BR&gt;
      62-3-1&lt;BR&gt;
      62-1-2&lt;BR&gt;
      -&lt;BR&gt;
      -&lt;BR&gt;
      -&lt;BR&gt;
      -&lt;BR&gt;
      -&lt;BR&gt;
      -&lt;BR&gt;
      -&lt;BR&gt;
      -&lt;BR&gt;
      -&lt;BR&gt;
      -&lt;BR&gt;
      -&lt;BR&gt;
      67R&lt;BR&gt;
      -&lt;BR&gt;
      67P&lt;BR&gt;
      -&lt;BR&gt;
      -&lt;BR&gt;
      -&lt;BR&gt;
      -&lt;BR&gt;
      67X&lt;BR&gt;
      63V&lt;BR&gt;
      63S&lt;BR&gt;
      63M&lt;BR&gt;
      -&lt;BR&gt;
      -&lt;BR&gt;
      63H&lt;BR&gt;
      63P&lt;BR&gt;
      -&lt;BR&gt;
      -&lt;BR&gt;
      63X&lt;BR&gt;&lt;/FONT&gt;
    &lt;/TD&gt;
    &lt;TD BGCOLOR="#cccccc" ALIGN=CENTER&gt;&lt;FONT FACE=ARIAL SIZE=3&gt;
      -&lt;BR&gt;
      -&lt;BR&gt;
      -&lt;BR&gt;
      RJ/RJR50&lt;BR&gt;
      RJ/RJR50&lt;BR&gt;
      RJ/RJR50&lt;BR&gt;
      -&lt;BR&gt;
      -&lt;BR&gt;
      -&lt;BR&gt;
      -&lt;BR&gt;
      -&lt;BR&gt;
      -&lt;BR&gt;
      -&lt;BR&gt;
      -&lt;BR&gt;
      -&lt;BR&gt;
      -&lt;BR&gt;
      -&lt;BR&gt;
      -&lt;BR&gt;
      -&lt;BR&gt;
      -&lt;BR&gt;
      -&lt;BR&gt;
      -&lt;BR&gt;
      -&lt;BR&gt;
      -&lt;BR&gt;
      -&lt;BR&gt;
      -&lt;BR&gt;
      -&lt;BR&gt;
      -&lt;BR&gt;
      -&lt;BR&gt;
      -&lt;BR&gt;
      -&lt;BR&gt;
      -&lt;BR&gt;
      -&lt;BR&gt;
      -&lt;BR&gt;&lt;/FONT&gt;
    &lt;/TD&gt;
  &lt;/TR&gt;
&lt;/TABLE&gt;
&lt;P&gt;&amp;nbsp;&lt;P&gt;
&lt;TABLE BORDER=0 CELLSPACING=1 CELLPADDING=3&gt;
  &lt;TR&gt;
    &lt;TD COLSPAN=7&gt;
      &lt;FONT color="#0000FF" SIZE=4 FACE=ARIAL&gt;&lt;B&gt;SMD TRIM-POT CROSS REFERENCE&lt;/B&gt;&lt;/FONT&gt;
      &lt;P&gt;
      &lt;FONT SIZE=4 FACE=ARIAL&gt;&lt;B&gt;MULTI-TURN&lt;/B&gt;&lt;/FONT&gt;
    &lt;/TD&gt;
  &lt;/TR&gt;
  &lt;TR&gt;
    &lt;TD&gt;
      &lt;FONT SIZE=3 FACE=ARIAL&gt;&lt;B&gt;BOURNS&lt;/B&gt;&lt;/FONT&gt;
    &lt;/TD&gt;
    &lt;TD&gt;
      &lt;FONT SIZE=3 FACE=ARIAL&gt;&lt;B&gt;BI&amp;nbsp;TECH&lt;/B&gt;&lt;/FONT&gt;
    &lt;/TD&gt;
    &lt;TD&gt;
      &lt;FONT SIZE=3 FACE=ARIAL&gt;&lt;B&gt;DALE-VISHAY&lt;/B&gt;&lt;/FONT&gt;
    &lt;/TD&gt;
    &lt;TD&gt;
      &lt;FONT SIZE=3 FACE=ARIAL&gt;&lt;B&gt;PHILIPS/MEPCO&lt;/B&gt;&lt;/FONT&gt;
    &lt;/TD&gt;
    &lt;TD&gt;
      &lt;FONT SIZE=3 FACE=ARIAL&gt;&lt;B&gt;PANASONIC&lt;/B&gt;&lt;/FONT&gt;
    &lt;/TD&gt;
    &lt;TD&gt;
      &lt;FONT SIZE=3 FACE=ARIAL&gt;&lt;B&gt;TOCOS&lt;/B&gt;&lt;/FONT&gt;
    &lt;/TD&gt;
    &lt;TD&gt;
      &lt;FONT SIZE=3 FACE=ARIAL&gt;&lt;B&gt;AUX/KYOCERA&lt;/B&gt;&lt;/FONT&gt;
    &lt;/TD&gt;
  &lt;/TR&gt;
  &lt;TR&gt;
    &lt;TD BGCOLOR="#cccccc" ALIGN=CENTER&gt;&lt;FONT FACE=ARIAL SIZE=3&gt;
      3224G&lt;BR&gt;
      3224J&lt;BR&gt;
      3224W&lt;BR&gt;
      3269P&lt;BR&gt;
      3269W&lt;BR&gt;
      3269X&lt;BR&gt;&lt;/FONT&gt;
    &lt;/TD&gt;
    &lt;TD BGCOLOR="#cccccc" ALIGN=CENTER&gt;&lt;FONT FACE=ARIAL SIZE=3&gt;
      44G&lt;BR&gt;
      44J&lt;BR&gt;
      44W&lt;BR&gt;
      84P&lt;BR&gt;
      84W&lt;BR&gt;
      84X&lt;BR&gt;&lt;/FONT&gt;
    &lt;/TD&gt;
    &lt;TD BGCOLOR="#cccccc" ALIGN=CENTER&gt;&lt;FONT FACE=ARIAL SIZE=3&gt;
      -&lt;BR&gt;
      -&lt;BR&gt;
      -&lt;BR&gt;
      ST63Z&lt;BR&gt;
      ST63Y&lt;BR&gt;
      -&lt;BR&gt;&lt;/FONT&gt;
    &lt;/TD&gt;
    &lt;TD BGCOLOR="#cccccc" ALIGN=CENTER&gt;&lt;FONT FACE=ARIAL SIZE=3&gt;
      -&lt;BR&gt;
      -&lt;BR&gt;
      -&lt;BR&gt;
      ST5P&lt;BR&gt;
      ST5W&lt;BR&gt;
      ST5X&lt;BR&gt;&lt;/FONT&gt;
    &lt;/TD&gt;
    &lt;TD BGCOLOR="#cccccc" ALIGN=CENTER&gt;&lt;FONT FACE=ARIAL SIZE=3&gt;
      -&lt;BR&gt;
      -&lt;BR&gt;
      -&lt;BR&gt;
      -&lt;BR&gt;
      -&lt;BR&gt;
      -&lt;BR&gt;&lt;/FONT&gt;
    &lt;/TD&gt;
    &lt;TD BGCOLOR="#cccccc" ALIGN=CENTER&gt;&lt;FONT FACE=ARIAL SIZE=3&gt;
      -&lt;BR&gt;
      -&lt;BR&gt;
      -&lt;BR&gt;
      -&lt;BR&gt;
      -&lt;BR&gt;
      -&lt;BR&gt;&lt;/FONT&gt;
    &lt;/TD&gt;
    &lt;TD BGCOLOR="#cccccc" ALIGN=CENTER&gt;&lt;FONT FACE=ARIAL SIZE=3&gt;
      -&lt;BR&gt;
      -&lt;BR&gt;
      -&lt;BR&gt;
      -&lt;BR&gt;
      -&lt;BR&gt;
      -&lt;BR&gt;&lt;/FONT&gt;
    &lt;/TD&gt;
  &lt;/TR&gt;
  &lt;TR&gt;
    &lt;TD COLSPAN=7&gt;&amp;nbsp;
    &lt;/TD&gt;
  &lt;/TR&gt;
  &lt;TR&gt;
    &lt;TD COLSPAN=7&gt;
      &lt;FONT SIZE=4 FACE=ARIAL&gt;&lt;B&gt;SINGLE TURN&lt;/B&gt;&lt;/FONT&gt;
    &lt;/TD&gt;
  &lt;/TR&gt;
  &lt;TR&gt;
    &lt;TD&gt;
      &lt;FONT SIZE=3 FACE=ARIAL&gt;&lt;B&gt;BOURNS&lt;/B&gt;&lt;/FONT&gt;
    &lt;/TD&gt;
    &lt;TD&gt;
      &lt;FONT SIZE=3 FACE=ARIAL&gt;&lt;B&gt;BI&amp;nbsp;TECH&lt;/B&gt;&lt;/FONT&gt;
    &lt;/TD&gt;
    &lt;TD&gt;
      &lt;FONT SIZE=3 FACE=ARIAL&gt;&lt;B&gt;DALE-VISHAY&lt;/B&gt;&lt;/FONT&gt;
    &lt;/TD&gt;
    &lt;TD&gt;
      &lt;FONT SIZE=3 FACE=ARIAL&gt;&lt;B&gt;PHILIPS/MEPCO&lt;/B&gt;&lt;/FONT&gt;
    &lt;/TD&gt;
    &lt;TD&gt;
      &lt;FONT SIZE=3 FACE=ARIAL&gt;&lt;B&gt;PANASONIC&lt;/B&gt;&lt;/FONT&gt;
    &lt;/TD&gt;
    &lt;TD&gt;
      &lt;FONT SIZE=3 FACE=ARIAL&gt;&lt;B&gt;TOCOS&lt;/B&gt;&lt;/FONT&gt;
    &lt;/TD&gt;
    &lt;TD&gt;
      &lt;FONT SIZE=3 FACE=ARIAL&gt;&lt;B&gt;AUX/KYOCERA&lt;/B&gt;&lt;/FONT&gt;
    &lt;/TD&gt;
  &lt;/TR&gt;
  &lt;TR&gt;
    &lt;TD BGCOLOR="#cccccc" ALIGN=CENTER&gt;&lt;FONT FACE=ARIAL SIZE=3&gt;
      3314G&lt;BR&gt;
      3314J&lt;BR&gt;
      3364A/B&lt;BR&gt;
      3364C/D&lt;BR&gt;
      3364W/X&lt;BR&gt;
      3313G&lt;BR&gt;
      3313J&lt;BR&gt;&lt;/FONT&gt;
    &lt;/TD&gt;
    &lt;TD BGCOLOR="#cccccc" ALIGN=CENTER&gt;&lt;FONT FACE=ARIAL SIZE=3&gt;
      23B&lt;BR&gt;
      23A&lt;BR&gt;
      21X&lt;BR&gt;
      21W&lt;BR&gt;
      -&lt;BR&gt;
      22B&lt;BR&gt;
      22A&lt;BR&gt;&lt;/FONT&gt;
    &lt;/TD&gt;
    &lt;TD BGCOLOR="#cccccc" ALIGN=CENTER&gt;&lt;FONT FACE=ARIAL SIZE=3&gt;
      ST5YL/ST53YL&lt;BR&gt;
      ST5YJ/5T53YJ&lt;BR&gt;
      ST-23A&lt;BR&gt;
      ST-22B&lt;BR&gt;
      ST-22&lt;BR&gt;
      -&lt;BR&gt;
      -&lt;BR&gt;&lt;/FONT&gt;
    &lt;/TD&gt;
    &lt;TD BGCOLOR="#cccccc" ALIGN=CENTER&gt;&lt;FONT FACE=ARIAL SIZE=3&gt;
      ST-4B&lt;BR&gt;
      ST-4A&lt;BR&gt;
      -&lt;BR&gt;
      -&lt;BR&gt;
      -&lt;BR&gt;
      ST-3B&lt;BR&gt;
      ST-3A&lt;BR&gt;&lt;/FONT&gt;
    &lt;/TD&gt;
    &lt;TD BGCOLOR="#cccccc" ALIGN=CENTER&gt;&lt;FONT FACE=ARIAL SIZE=3&gt;
      -&lt;BR&gt;
      EVM-6YS&lt;BR&gt;
      EVM-1E&lt;BR&gt;
      EVM-1G&lt;BR&gt;
      EVM-1D&lt;BR&gt;
      -&lt;BR&gt;
      -&lt;BR&gt;&lt;/FONT&gt;
    &lt;/TD&gt;
    &lt;TD BGCOLOR="#cccccc" ALIGN=CENTER&gt;&lt;FONT FACE=ARIAL SIZE=3&gt;
      G4B&lt;BR&gt;
      G4A&lt;BR&gt;
      TR04-3S1&lt;BR&gt;
      TRG04-2S1&lt;BR&gt;
      -&lt;BR&gt;
      -&lt;BR&gt;
      -&lt;BR&gt;&lt;/FONT&gt;
    &lt;/TD&gt;
    &lt;TD BGCOLOR="#cccccc" ALIGN=CENTER&gt;&lt;FONT FACE=ARIAL SIZE=3&gt;
      -&lt;BR&gt;
      -&lt;BR&gt;
      DVR-43A&lt;BR&gt;
      CVR-42C&lt;BR&gt;
      CVR-42A/C&lt;BR&gt;
      -&lt;BR&gt;
      -&lt;BR&gt;&lt;/FONT&gt;
    &lt;/TD&gt;
  &lt;/TR&gt;
&lt;/TABLE&gt;
&lt;P&gt;
&lt;FONT SIZE=4 FACE=ARIAL&gt;&lt;B&gt;ALT =&amp;nbsp;ALTERNATE&lt;/B&gt;&lt;/FONT&gt;
&lt;P&gt;

&amp;nbsp;
&lt;P&gt;
&lt;/td&gt;
&lt;/tr&gt;
&lt;/table&gt;</description>
<packages>
<package name="C0402" urn="urn:adsk.eagle:footprint:23121/1" library_version="11">
<description>&lt;b&gt;CAPACITOR&lt;/b&gt;</description>
<wire x1="-0.245" y1="0.224" x2="0.245" y2="0.224" width="0.1524" layer="51"/>
<wire x1="0.245" y1="-0.224" x2="-0.245" y2="-0.224" width="0.1524" layer="51"/>
<wire x1="-1.473" y1="0.483" x2="1.473" y2="0.483" width="0.0508" layer="39"/>
<wire x1="1.473" y1="0.483" x2="1.473" y2="-0.483" width="0.0508" layer="39"/>
<wire x1="1.473" y1="-0.483" x2="-1.473" y2="-0.483" width="0.0508" layer="39"/>
<wire x1="-1.473" y1="-0.483" x2="-1.473" y2="0.483" width="0.0508" layer="39"/>
<smd name="1" x="-0.65" y="0" dx="0.7" dy="0.9" layer="1"/>
<smd name="2" x="0.65" y="0" dx="0.7" dy="0.9" layer="1"/>
<text x="-0.635" y="0.635" size="1.27" layer="25">&gt;NAME</text>
<text x="-0.635" y="-1.905" size="1.27" layer="27">&gt;VALUE</text>
<rectangle x1="-0.554" y1="-0.3048" x2="-0.254" y2="0.2951" layer="51"/>
<rectangle x1="0.2588" y1="-0.3048" x2="0.5588" y2="0.2951" layer="51"/>
<rectangle x1="-0.1999" y1="-0.3" x2="0.1999" y2="0.3" layer="35"/>
</package>
<package name="C1608" urn="urn:adsk.eagle:footprint:23128/1" library_version="11">
<description>&lt;b&gt;CAPACITOR&lt;/b&gt;</description>
<wire x1="-1.473" y1="0.983" x2="1.473" y2="0.983" width="0.0508" layer="39"/>
<wire x1="1.473" y1="0.983" x2="1.473" y2="-0.983" width="0.0508" layer="39"/>
<wire x1="1.473" y1="-0.983" x2="-1.473" y2="-0.983" width="0.0508" layer="39"/>
<wire x1="-1.473" y1="-0.983" x2="-1.473" y2="0.983" width="0.0508" layer="39"/>
<wire x1="-0.356" y1="0.432" x2="0.356" y2="0.432" width="0.1016" layer="51"/>
<wire x1="-0.356" y1="-0.419" x2="0.356" y2="-0.419" width="0.1016" layer="51"/>
<smd name="1" x="-0.85" y="0" dx="1.1" dy="1" layer="1"/>
<smd name="2" x="0.85" y="0" dx="1.1" dy="1" layer="1"/>
<text x="-0.635" y="0.635" size="1.27" layer="25">&gt;NAME</text>
<text x="-0.635" y="-1.905" size="1.27" layer="27">&gt;VALUE</text>
<rectangle x1="-0.8382" y1="-0.4699" x2="-0.3381" y2="0.4801" layer="51"/>
<rectangle x1="0.3302" y1="-0.4699" x2="0.8303" y2="0.4801" layer="51"/>
<rectangle x1="-0.1999" y1="-0.3" x2="0.1999" y2="0.3" layer="35"/>
</package>
<package name="E5-13" urn="urn:adsk.eagle:footprint:22871/1" library_version="11">
<description>&lt;b&gt;ELECTROLYTIC CAPACITOR&lt;/b&gt;&lt;p&gt;
grid 5.08 mm, diameter 13 mm</description>
<wire x1="-1.143" y1="0" x2="-0.889" y2="0" width="0.1524" layer="21"/>
<wire x1="-0.889" y1="0" x2="-0.889" y2="-1.27" width="0.1524" layer="21"/>
<wire x1="-0.889" y1="-1.27" x2="-0.254" y2="-1.27" width="0.1524" layer="21"/>
<wire x1="-0.254" y1="-1.27" x2="-0.254" y2="1.27" width="0.1524" layer="21"/>
<wire x1="-0.254" y1="1.27" x2="-0.889" y2="1.27" width="0.1524" layer="21"/>
<wire x1="-0.889" y1="1.27" x2="-0.889" y2="0" width="0.1524" layer="21"/>
<wire x1="0.635" y1="0" x2="1.143" y2="0" width="0.1524" layer="21"/>
<wire x1="-5.715" y1="0" x2="-4.445" y2="0" width="0.1524" layer="21"/>
<wire x1="-5.08" y1="-0.635" x2="-5.08" y2="0.635" width="0.1524" layer="21"/>
<wire x1="1.016" y1="0" x2="1.524" y2="0" width="0.1524" layer="51"/>
<wire x1="-1.651" y1="0" x2="-1.143" y2="0" width="0.1524" layer="51"/>
<circle x="0" y="0" radius="6.985" width="0.1524" layer="21"/>
<pad name="+" x="-2.54" y="0" drill="1.016" diameter="2.54"/>
<pad name="-" x="2.54" y="0" drill="1.016" diameter="2.54" shape="octagon"/>
<text x="6.3754" y="4.1148" size="1.778" layer="25" ratio="10">&gt;NAME</text>
<text x="-4.572" y="-3.937" size="1.778" layer="27" ratio="10">&gt;VALUE</text>
<rectangle x1="0.254" y1="-1.27" x2="0.889" y2="1.27" layer="21"/>
</package>
<package name="0207/10" urn="urn:adsk.eagle:footprint:22992/1" library_version="11">
<description>&lt;b&gt;RESISTOR&lt;/b&gt;&lt;p&gt;
type 0207, grid 10 mm</description>
<wire x1="5.08" y1="0" x2="4.064" y2="0" width="0.6096" layer="51"/>
<wire x1="-5.08" y1="0" x2="-4.064" y2="0" width="0.6096" layer="51"/>
<wire x1="-3.175" y1="0.889" x2="-2.921" y2="1.143" width="0.1524" layer="21" curve="-90"/>
<wire x1="-3.175" y1="-0.889" x2="-2.921" y2="-1.143" width="0.1524" layer="21" curve="90"/>
<wire x1="2.921" y1="-1.143" x2="3.175" y2="-0.889" width="0.1524" layer="21" curve="90"/>
<wire x1="2.921" y1="1.143" x2="3.175" y2="0.889" width="0.1524" layer="21" curve="-90"/>
<wire x1="-3.175" y1="-0.889" x2="-3.175" y2="0.889" width="0.1524" layer="21"/>
<wire x1="-2.921" y1="1.143" x2="-2.54" y2="1.143" width="0.1524" layer="21"/>
<wire x1="-2.413" y1="1.016" x2="-2.54" y2="1.143" width="0.1524" layer="21"/>
<wire x1="-2.921" y1="-1.143" x2="-2.54" y2="-1.143" width="0.1524" layer="21"/>
<wire x1="-2.413" y1="-1.016" x2="-2.54" y2="-1.143" width="0.1524" layer="21"/>
<wire x1="2.413" y1="1.016" x2="2.54" y2="1.143" width="0.1524" layer="21"/>
<wire x1="2.413" y1="1.016" x2="-2.413" y2="1.016" width="0.1524" layer="21"/>
<wire x1="2.413" y1="-1.016" x2="2.54" y2="-1.143" width="0.1524" layer="21"/>
<wire x1="2.413" y1="-1.016" x2="-2.413" y2="-1.016" width="0.1524" layer="21"/>
<wire x1="2.921" y1="1.143" x2="2.54" y2="1.143" width="0.1524" layer="21"/>
<wire x1="2.921" y1="-1.143" x2="2.54" y2="-1.143" width="0.1524" layer="21"/>
<wire x1="3.175" y1="-0.889" x2="3.175" y2="0.889" width="0.1524" layer="21"/>
<pad name="1" x="-5.08" y="0" drill="0.8128" shape="octagon"/>
<pad name="2" x="5.08" y="0" drill="0.8128" shape="octagon"/>
<text x="-3.048" y="1.524" size="1.27" layer="25" ratio="10">&gt;NAME</text>
<text x="-2.2606" y="-0.635" size="1.27" layer="27" ratio="10">&gt;VALUE</text>
<rectangle x1="3.175" y1="-0.3048" x2="4.0386" y2="0.3048" layer="21"/>
<rectangle x1="-4.0386" y1="-0.3048" x2="-3.175" y2="0.3048" layer="21"/>
</package>
<package name="0411/15" urn="urn:adsk.eagle:footprint:23077/1" library_version="11">
<description>&lt;b&gt;RESISTOR&lt;/b&gt;&lt;p&gt;
type 0411, grid 15 mm</description>
<wire x1="5.08" y1="-1.651" x2="5.08" y2="1.651" width="0.1524" layer="21"/>
<wire x1="4.699" y1="2.032" x2="5.08" y2="1.651" width="0.1524" layer="21" curve="-90"/>
<wire x1="-5.08" y1="-1.651" x2="-4.699" y2="-2.032" width="0.1524" layer="21" curve="90"/>
<wire x1="4.699" y1="-2.032" x2="5.08" y2="-1.651" width="0.1524" layer="21" curve="90"/>
<wire x1="-5.08" y1="1.651" x2="-4.699" y2="2.032" width="0.1524" layer="21" curve="-90"/>
<wire x1="4.699" y1="2.032" x2="4.064" y2="2.032" width="0.1524" layer="21"/>
<wire x1="3.937" y1="1.905" x2="4.064" y2="2.032" width="0.1524" layer="21"/>
<wire x1="4.699" y1="-2.032" x2="4.064" y2="-2.032" width="0.1524" layer="21"/>
<wire x1="3.937" y1="-1.905" x2="4.064" y2="-2.032" width="0.1524" layer="21"/>
<wire x1="-3.937" y1="1.905" x2="-4.064" y2="2.032" width="0.1524" layer="21"/>
<wire x1="-3.937" y1="1.905" x2="3.937" y2="1.905" width="0.1524" layer="21"/>
<wire x1="-3.937" y1="-1.905" x2="-4.064" y2="-2.032" width="0.1524" layer="21"/>
<wire x1="-3.937" y1="-1.905" x2="3.937" y2="-1.905" width="0.1524" layer="21"/>
<wire x1="-5.08" y1="1.651" x2="-5.08" y2="-1.651" width="0.1524" layer="21"/>
<wire x1="-4.699" y1="2.032" x2="-4.064" y2="2.032" width="0.1524" layer="21"/>
<wire x1="-4.699" y1="-2.032" x2="-4.064" y2="-2.032" width="0.1524" layer="21"/>
<wire x1="-7.62" y1="0" x2="-6.35" y2="0" width="0.762" layer="51"/>
<wire x1="6.35" y1="0" x2="7.62" y2="0" width="0.762" layer="51"/>
<pad name="1" x="-7.62" y="0" drill="0.9144" shape="octagon"/>
<pad name="2" x="7.62" y="0" drill="0.9144" shape="octagon"/>
<text x="-5.08" y="2.413" size="1.27" layer="25" ratio="10">&gt;NAME</text>
<text x="-3.5814" y="-0.635" size="1.27" layer="27" ratio="10">&gt;VALUE</text>
<rectangle x1="5.08" y1="-0.381" x2="6.477" y2="0.381" layer="21"/>
<rectangle x1="-6.477" y1="-0.381" x2="-5.08" y2="0.381" layer="21"/>
</package>
</packages>
<packages3d>
<package3d name="CAPC1005X60" urn="urn:adsk.eagle:package:23626/2" type="model" library_version="11">
<description>Chip, 1.00 X 0.50 X 0.60 mm body
&lt;p&gt;Chip package with body size 1.00 X 0.50 X 0.60 mm&lt;/p&gt;</description>
<packageinstances>
<packageinstance name="C0402"/>
</packageinstances>
</package3d>
<package3d name="C1608" urn="urn:adsk.eagle:package:23621/2" type="model" library_version="11">
<description>CAPACITOR</description>
<packageinstances>
<packageinstance name="C1608"/>
</packageinstances>
</package3d>
<package3d name="E5-13" urn="urn:adsk.eagle:package:23375/1" type="box" library_version="11">
<description>ELECTROLYTIC CAPACITOR
grid 5.08 mm, diameter 13 mm</description>
<packageinstances>
<packageinstance name="E5-13"/>
</packageinstances>
</package3d>
<package3d name="0207/10" urn="urn:adsk.eagle:package:23491/2" type="model" library_version="11">
<description>RESISTOR
type 0207, grid 10 mm</description>
<packageinstances>
<packageinstance name="0207/10"/>
</packageinstances>
</package3d>
<package3d name="0411/15" urn="urn:adsk.eagle:package:23568/2" type="model" library_version="11">
<description>RESISTOR
type 0411, grid 15 mm</description>
<packageinstances>
<packageinstance name="0411/15"/>
</packageinstances>
</package3d>
</packages3d>
</library>
<library name="diode" urn="urn:adsk.eagle:library:210">
<description>&lt;b&gt;Diodes&lt;/b&gt;&lt;p&gt;
Based on the following sources:
&lt;ul&gt;
&lt;li&gt;Motorola : www.onsemi.com
&lt;li&gt;Fairchild : www.fairchildsemi.com
&lt;li&gt;Philips : www.semiconductors.com
&lt;li&gt;Vishay : www.vishay.de
&lt;/ul&gt;
&lt;author&gt;Created by librarian@cadsoft.de&lt;/author&gt;</description>
<packages>
<package name="DO220S" urn="urn:adsk.eagle:footprint:43133/1" library_version="8">
<description>&lt;B&gt;DIODE&lt;/B&gt;&lt;p&gt;
2-lead molded, vertical</description>
<wire x1="5.08" y1="-1.143" x2="4.953" y2="-4.064" width="0.1524" layer="21"/>
<wire x1="4.699" y1="-4.318" x2="4.953" y2="-4.064" width="0.1524" layer="21"/>
<wire x1="4.699" y1="-4.318" x2="-4.699" y2="-4.318" width="0.1524" layer="21"/>
<wire x1="-4.953" y1="-4.064" x2="-4.699" y2="-4.318" width="0.1524" layer="21"/>
<wire x1="-4.953" y1="-4.064" x2="-5.08" y2="-1.143" width="0.1524" layer="21"/>
<circle x="-4.4958" y="-3.7084" radius="0.254" width="0" layer="21"/>
<pad name="C" x="-2.54" y="-2.54" drill="1.016" shape="long" rot="R90"/>
<pad name="A" x="2.54" y="-2.54" drill="1.016" shape="long" rot="R90"/>
<text x="-4.572" y="-6.0452" size="1.27" layer="25" ratio="10">&gt;NAME</text>
<text x="-4.572" y="-7.62" size="1.27" layer="27" ratio="10">&gt;VALUE</text>
<rectangle x1="-5.334" y1="-0.762" x2="5.334" y2="0" layer="21"/>
<rectangle x1="-5.334" y1="-1.27" x2="-3.429" y2="-0.762" layer="21"/>
<rectangle x1="-3.429" y1="-1.27" x2="-1.651" y2="-0.762" layer="51"/>
<rectangle x1="3.429" y1="-1.27" x2="5.334" y2="-0.762" layer="21"/>
<rectangle x1="1.651" y1="-1.27" x2="3.429" y2="-0.762" layer="51"/>
<rectangle x1="-1.651" y1="-1.27" x2="1.651" y2="-0.762" layer="21"/>
</package>
</packages>
<packages3d>
<package3d name="DO220S" urn="urn:adsk.eagle:package:43371/4" type="model" library_version="8">
<description>DIODE
2-lead molded, vertical</description>
<packageinstances>
<packageinstance name="DO220S"/>
</packageinstances>
</package3d>
</packages3d>
</library>
<library name="1935161">
<packages>
<package name="PHOENIX_1935161">
<wire x1="-5" y1="4" x2="5" y2="4" width="0.127" layer="21"/>
<wire x1="5" y1="4" x2="5" y2="-4.3" width="0.127" layer="21"/>
<wire x1="5" y1="-4.3" x2="-5" y2="-4.3" width="0.127" layer="21"/>
<wire x1="-5" y1="-4.3" x2="-5" y2="4" width="0.127" layer="21"/>
<wire x1="-5" y1="-4.3" x2="-5" y2="4" width="0.127" layer="51"/>
<wire x1="-5" y1="4" x2="5" y2="4" width="0.127" layer="51"/>
<wire x1="5" y1="4" x2="5" y2="-4.3" width="0.127" layer="51"/>
<wire x1="5" y1="-4.3" x2="-5" y2="-4.3" width="0.127" layer="51"/>
<circle x="-3.8" y="1.5" radius="0.14" width="0.28" layer="21"/>
<circle x="-3.8" y="1.5" radius="0.14" width="0.28" layer="51"/>
<wire x1="-5.25" y1="4.25" x2="5.25" y2="4.25" width="0.05" layer="39"/>
<wire x1="5.25" y1="4.25" x2="5.25" y2="-4.55" width="0.05" layer="39"/>
<wire x1="5.25" y1="-4.55" x2="-5.25" y2="-4.55" width="0.05" layer="39"/>
<wire x1="-5.25" y1="-4.55" x2="-5.25" y2="4.25" width="0.05" layer="39"/>
<text x="-5.08705" y="5.08705" size="1.27176875" layer="25">NAME</text>
<text x="-5.09283125" y="-6.366040625" size="1.273209375" layer="27">VALUE</text>
<pad name="1" x="-2.5" y="0" drill="1.3" shape="square"/>
<pad name="2" x="2.5" y="0" drill="1.3"/>
</package>
</packages>
</library>
<library name="ARDUINO_NANO">
<packages>
<package name="SHIELD_ARDUINO_NANO">
<wire x1="-8.89" y1="21.59" x2="8.89" y2="21.59" width="0.127" layer="51"/>
<wire x1="8.89" y1="21.59" x2="8.89" y2="-21.59" width="0.127" layer="51"/>
<wire x1="8.89" y1="-21.59" x2="3" y2="-21.59" width="0.127" layer="51"/>
<wire x1="3" y1="-21.59" x2="-2.97" y2="-21.59" width="0.127" layer="51"/>
<wire x1="-2.97" y1="-21.59" x2="-8.89" y2="-21.59" width="0.127" layer="51"/>
<wire x1="-8.89" y1="-21.59" x2="-8.89" y2="21.59" width="0.127" layer="51"/>
<circle x="-10.2" y="17.8" radius="0.1" width="0.2" layer="21"/>
<wire x1="-8.89" y1="21.59" x2="8.89" y2="21.59" width="0.127" layer="21"/>
<wire x1="8.89" y1="21.59" x2="8.89" y2="-21.59" width="0.127" layer="21"/>
<wire x1="8.89" y1="-21.59" x2="-8.89" y2="-21.59" width="0.127" layer="21"/>
<wire x1="-8.89" y1="-21.59" x2="-8.89" y2="21.59" width="0.127" layer="21"/>
<wire x1="-9.14" y1="21.84" x2="9.14" y2="21.84" width="0.05" layer="39"/>
<wire x1="9.14" y1="21.84" x2="9.14" y2="-21.84" width="0.05" layer="39"/>
<wire x1="-9.14" y1="-21.84" x2="-9.14" y2="21.84" width="0.05" layer="39"/>
<text x="-9.2" y="21.9" size="1.778" layer="25">&gt;NAME</text>
<text x="-9.3" y="-28.78" size="1.778" layer="27">&gt;VALUE</text>
<circle x="-10.2" y="17.8" radius="0.1" width="0.2" layer="51"/>
<wire x1="-2.97" y1="-21.59" x2="-2.97" y2="-23.495" width="0.127" layer="51"/>
<wire x1="-2.97" y1="-23.495" x2="3" y2="-23.495" width="0.127" layer="51"/>
<wire x1="3" y1="-23.495" x2="3" y2="-21.59" width="0.127" layer="51"/>
<wire x1="-9.14" y1="-21.84" x2="-3.22" y2="-21.84" width="0.05" layer="39"/>
<wire x1="-3.22" y1="-21.84" x2="-3.22" y2="-23.745" width="0.05" layer="39"/>
<wire x1="-3.22" y1="-23.745" x2="3.25" y2="-23.745" width="0.05" layer="39"/>
<wire x1="3.25" y1="-23.745" x2="3.25" y2="-21.84" width="0.05" layer="39"/>
<wire x1="3.25" y1="-21.84" x2="9.14" y2="-21.84" width="0.05" layer="39"/>
<pad name="1" x="-7.62" y="17.78" drill="0.9" diameter="1.8" shape="square" rot="R270"/>
<pad name="2" x="-7.62" y="15.24" drill="0.9" diameter="1.8" rot="R270"/>
<pad name="3" x="-7.62" y="12.7" drill="0.9" diameter="1.8" rot="R270"/>
<pad name="4" x="-7.62" y="10.16" drill="0.9" diameter="1.8" rot="R270"/>
<pad name="5" x="-7.62" y="7.62" drill="0.9" diameter="1.8" rot="R270"/>
<pad name="6" x="-7.62" y="5.08" drill="0.9" diameter="1.8" rot="R270"/>
<pad name="7" x="-7.62" y="2.54" drill="0.9" diameter="1.8" rot="R270"/>
<pad name="8" x="-7.62" y="0" drill="0.9" diameter="1.8" rot="R270"/>
<pad name="9" x="-7.62" y="-2.54" drill="0.9" diameter="1.8" rot="R270"/>
<pad name="10" x="-7.62" y="-5.08" drill="0.9" diameter="1.8" rot="R270"/>
<pad name="11" x="-7.62" y="-7.62" drill="0.9" diameter="1.8" rot="R270"/>
<pad name="12" x="-7.62" y="-10.16" drill="0.9" diameter="1.8" rot="R270"/>
<pad name="13" x="-7.62" y="-12.7" drill="0.9" diameter="1.8" rot="R270"/>
<pad name="14" x="-7.62" y="-15.24" drill="0.9" diameter="1.8" rot="R270"/>
<pad name="15" x="-7.62" y="-17.78" drill="0.9" diameter="1.8" rot="R270"/>
<pad name="16" x="7.62" y="-17.78" drill="0.9" diameter="1.8" rot="R90"/>
<pad name="17" x="7.62" y="-15.24" drill="0.9" diameter="1.8" rot="R90"/>
<pad name="18" x="7.62" y="-12.7" drill="0.9" diameter="1.8" rot="R90"/>
<pad name="19" x="7.62" y="-10.16" drill="0.9" diameter="1.8" rot="R90"/>
<pad name="20" x="7.62" y="-7.62" drill="0.9" diameter="1.8" rot="R90"/>
<pad name="21" x="7.62" y="-5.08" drill="0.9" diameter="1.8" rot="R90"/>
<pad name="22" x="7.62" y="-2.54" drill="0.9" diameter="1.8" rot="R90"/>
<pad name="23" x="7.62" y="0" drill="0.9" diameter="1.8" rot="R90"/>
<pad name="24" x="7.62" y="2.54" drill="0.9" diameter="1.8" rot="R90"/>
<pad name="25" x="7.62" y="5.08" drill="0.9" diameter="1.8" rot="R90"/>
<pad name="26" x="7.62" y="7.62" drill="0.9" diameter="1.8" rot="R90"/>
<pad name="27" x="7.62" y="10.16" drill="0.9" diameter="1.8" rot="R90"/>
<pad name="28" x="7.62" y="12.7" drill="0.9" diameter="1.8" rot="R90"/>
<pad name="29" x="7.62" y="15.24" drill="0.9" diameter="1.8" rot="R90"/>
<pad name="30" x="7.62" y="17.78" drill="0.9" diameter="1.8" rot="R90"/>
</package>
</packages>
</library>
<library name="minibike">
<packages>
<package name="TO220V" urn="urn:adsk.eagle:footprint:29199/1">
<description>&lt;b&gt;TO-220&lt;/b&gt;&lt;p&gt;
grid 2.54 mm, vertical</description>
<wire x1="5.08" y1="-1.143" x2="4.953" y2="-4.064" width="0.1524" layer="21"/>
<wire x1="4.699" y1="-4.318" x2="4.953" y2="-4.064" width="0.1524" layer="21"/>
<wire x1="4.699" y1="-4.318" x2="-4.699" y2="-4.318" width="0.1524" layer="21"/>
<wire x1="-4.953" y1="-4.064" x2="-4.699" y2="-4.318" width="0.1524" layer="21"/>
<wire x1="-4.953" y1="-4.064" x2="-5.08" y2="-1.143" width="0.1524" layer="21"/>
<circle x="-4.4958" y="-3.7084" radius="0.254" width="0" layer="21"/>
<pad name="1" x="-2.54" y="-2.54" drill="1.016" shape="long" rot="R90"/>
<pad name="2" x="0" y="-2.54" drill="1.016" shape="long" rot="R90"/>
<pad name="3" x="2.54" y="-2.54" drill="1.016" shape="long" rot="R90"/>
<text x="-5.08" y="-6.0452" size="1.27" layer="25" ratio="10">&gt;NAME</text>
<text x="-5.08" y="-7.62" size="1.27" layer="27" ratio="10">&gt;VALUE</text>
<text x="-3.175" y="-3.175" size="1.27" layer="51" ratio="10">1</text>
<text x="-0.635" y="-3.175" size="1.27" layer="51" ratio="10">2</text>
<text x="1.905" y="-3.175" size="1.27" layer="51" ratio="10">3</text>
<rectangle x1="-5.334" y1="-0.762" x2="5.334" y2="0" layer="21"/>
<rectangle x1="-5.334" y1="-1.27" x2="-3.429" y2="-0.762" layer="21"/>
<rectangle x1="-1.651" y1="-1.27" x2="-0.889" y2="-0.762" layer="21"/>
<rectangle x1="-3.429" y1="-1.27" x2="-1.651" y2="-0.762" layer="51"/>
<rectangle x1="0.889" y1="-1.27" x2="1.651" y2="-0.762" layer="21"/>
<rectangle x1="3.429" y1="-1.27" x2="5.334" y2="-0.762" layer="21"/>
<rectangle x1="-0.889" y1="-1.27" x2="0.889" y2="-0.762" layer="51"/>
<rectangle x1="1.651" y1="-1.27" x2="3.429" y2="-0.762" layer="51"/>
</package>
<package name="DIP787W46P254L927H533Q8">
<wire x1="-5.13" y1="-5.21" x2="5.13" y2="-5.21" width="0.05" layer="39"/>
<wire x1="5.13" y1="-5.21" x2="5.13" y2="5.21" width="0.05" layer="39"/>
<wire x1="5.13" y1="5.21" x2="-5.13" y2="5.21" width="0.05" layer="39"/>
<wire x1="-5.13" y1="5.21" x2="-5.13" y2="-5.21" width="0.05" layer="39"/>
<text x="-13.6956" y="-16.8947" size="3.357890625" layer="27">&gt;VALUE</text>
<text x="-14.082" y="14.3304" size="3.500090625" layer="25">&gt;NAME</text>
<wire x1="-3.18" y1="-4.8" x2="-3.18" y2="4.8" width="0.127" layer="51"/>
<wire x1="-3.18" y1="4.8" x2="3.18" y2="4.8" width="0.127" layer="21"/>
<wire x1="3.18" y1="4.8" x2="3.18" y2="-4.8" width="0.127" layer="51"/>
<wire x1="3.18" y1="-4.8" x2="-3.18" y2="-4.8" width="0.127" layer="21"/>
<circle x="-2.27" y="4.05" radius="0.385875" width="0.127" layer="51"/>
<circle x="-4.85" y="4.85" radius="0.1" width="0.2" layer="21"/>
<pad name="3" x="-3.935" y="-1.27" drill="0.8"/>
<pad name="2" x="-3.935" y="1.27" drill="0.8"/>
<pad name="4" x="-3.935" y="-3.81" drill="0.8"/>
<pad name="1" x="-3.935" y="3.81" drill="0.8" shape="square"/>
<pad name="5" x="3.935" y="-3.81" drill="0.8"/>
<pad name="8" x="3.935" y="3.81" drill="0.8"/>
<pad name="6" x="3.935" y="-1.27" drill="0.8"/>
<pad name="7" x="3.935" y="1.27" drill="0.8"/>
</package>
<package name="BARRIER_BLOCK_2_CXN">
<wire x1="0" y1="0" x2="0" y2="21" width="0.127" layer="21"/>
<wire x1="0" y1="21" x2="28" y2="21" width="0.127" layer="21"/>
<wire x1="28" y1="21" x2="28" y2="0" width="0.127" layer="21"/>
<wire x1="28" y1="0" x2="0" y2="0" width="0.127" layer="21"/>
<pad name="P$1" x="8" y="17" drill="4" shape="long"/>
<pad name="P$2" x="21" y="4" drill="4" shape="long"/>
</package>
</packages>
</library>
<library name="Rembrandt Electronics - JST XH Connectors v1-0">
<packages>
<package name="JST-XH-03-PACKAGE-LONG-PAD">
<description>&lt;b&gt;JST XH Connector Long Pads (Package)&lt;/b&gt;&lt;p&gt;

Wire to board connector.

Pitch: 2,54 mm, (0.100")&lt;p&gt;
Number of pins: &lt;b&gt;3&lt;/b&gt;&lt;b&gt;&lt;P&gt;

&lt;b&gt;Created by Rembrandt Electronics&lt;/b&gt;&lt;p&gt;
&lt;b&gt;www.rembrandtelectronics.com&lt;/b&gt;&lt;p&gt;</description>
<wire x1="4.95" y1="-2.3575" x2="4.95" y2="3.3925" width="0.254" layer="21"/>
<wire x1="4.95" y1="3.3925" x2="-4.95" y2="3.3925" width="0.254" layer="21"/>
<wire x1="-4.95" y1="3.3925" x2="-4.95" y2="-2.3575" width="0.254" layer="21"/>
<wire x1="-4.95" y1="-2.3575" x2="4.95" y2="-2.3575" width="0.254" layer="21"/>
<pad name="3" x="2.54" y="0" drill="1.016" shape="long" rot="R90"/>
<pad name="2" x="0" y="0" drill="1.016" shape="long" rot="R90"/>
<pad name="1" x="-2.54" y="0" drill="1.016" shape="long" rot="R90"/>
<text x="-5.555" y="-2.04" size="1.016" layer="25" ratio="10" rot="R90">&gt;NAME</text>
<text x="-4.6025" y="3.8925" size="1.016" layer="27" ratio="10">&gt;VALUE</text>
<text x="-4.1675" y="-1.4875" size="1.016" layer="51" ratio="10">1</text>
<wire x1="-2.6" y1="-2.3" x2="-2.6" y2="-1.8" width="0.254" layer="21"/>
<wire x1="2.5" y1="-2.3" x2="2.5" y2="-1.8" width="0.254" layer="21"/>
</package>
<package name="JST-XH-04-PACKAGE-ROUND-PAD">
<description>&lt;b&gt;JST XH Connector Round Pads (Package)&lt;/b&gt;&lt;p&gt;

Wire to board connector.

Pitch: 2,54 mm, (0.100")&lt;p&gt;
Number of pins: &lt;b&gt;4&lt;/b&gt;&lt;b&gt;&lt;P&gt;

&lt;b&gt;Created by Rembrandt Electronics&lt;/b&gt;&lt;p&gt;
&lt;b&gt;www.rembrandtelectronics.com&lt;/b&gt;&lt;p&gt;</description>
<wire x1="6.2" y1="-2.3575" x2="6.2" y2="3.3925" width="0.254" layer="21"/>
<wire x1="6.2" y1="3.3925" x2="-6.2" y2="3.3925" width="0.254" layer="21"/>
<wire x1="-6.2" y1="3.3925" x2="-6.2" y2="-2.3575" width="0.254" layer="21"/>
<wire x1="-6.2" y1="-2.3575" x2="6.2" y2="-2.3575" width="0.254" layer="21"/>
<pad name="3" x="1.27" y="0" drill="1.016" rot="R90"/>
<pad name="2" x="-1.27" y="0" drill="1.016" rot="R90"/>
<pad name="1" x="-3.81" y="0" drill="1.016" rot="R90"/>
<pad name="4" x="3.81" y="0" drill="1.016" rot="R90"/>
<text x="-6.655" y="-2.04" size="1.016" layer="25" ratio="10" rot="R90">&gt;NAME</text>
<text x="-6.0025" y="3.8925" size="1.016" layer="27" ratio="10">&gt;VALUE</text>
<text x="-5.4675" y="-1.4875" size="1.016" layer="51" ratio="10">1</text>
<wire x1="-3.8" y1="-2.3" x2="-3.8" y2="-1.8" width="0.254" layer="21"/>
<wire x1="3.9" y1="-2.3" x2="3.9" y2="-1.8" width="0.254" layer="21"/>
</package>
</packages>
</library>
</libraries>
<attributes>
</attributes>
<variantdefs>
</variantdefs>
<classes>
<class number="0" name="default" width="0" drill="0">
</class>
</classes>
<designrules name="default">
<description language="de">&lt;b&gt;EAGLE Design Rules&lt;/b&gt;
&lt;p&gt;
Die Standard-Design-Rules sind so gewählt, dass sie für 
die meisten Anwendungen passen. Sollte ihre Platine 
besondere Anforderungen haben, treffen Sie die erforderlichen
Einstellungen hier und speichern die Design Rules unter 
einem neuen Namen ab.</description>
<description language="en">&lt;b&gt;EAGLE Design Rules&lt;/b&gt;
&lt;p&gt;
The default Design Rules have been set to cover
a wide range of applications. Your particular design
may have different requirements, so please make the
necessary adjustments and save your customized
design rules under a new name.</description>
<param name="layerSetup" value="(1*16)"/>
<param name="mtCopper" value="0.035mm 0.035mm 0.035mm 0.035mm 0.035mm 0.035mm 0.035mm 0.035mm 0.035mm 0.035mm 0.035mm 0.035mm 0.035mm 0.035mm 0.035mm 0.035mm"/>
<param name="mtIsolate" value="1.5mm 0.15mm 0.2mm 0.15mm 0.2mm 0.15mm 0.2mm 0.15mm 0.2mm 0.15mm 0.2mm 0.15mm 0.2mm 0.15mm 0.2mm"/>
<param name="mdWireWire" value="6mil"/>
<param name="mdWirePad" value="6mil"/>
<param name="mdWireVia" value="6mil"/>
<param name="mdPadPad" value="6mil"/>
<param name="mdPadVia" value="6mil"/>
<param name="mdViaVia" value="6mil"/>
<param name="mdSmdPad" value="6mil"/>
<param name="mdSmdVia" value="6mil"/>
<param name="mdSmdSmd" value="6mil"/>
<param name="mdViaViaSameLayer" value="6mil"/>
<param name="mnLayersViaInSmd" value="2"/>
<param name="mdCopperDimension" value="40mil"/>
<param name="mdDrill" value="6mil"/>
<param name="mdSmdStop" value="0mil"/>
<param name="msWidth" value="6mil"/>
<param name="msDrill" value="0.35mm"/>
<param name="msMicroVia" value="9.99mm"/>
<param name="msBlindViaRatio" value="0.5"/>
<param name="rvPadTop" value="0.25"/>
<param name="rvPadInner" value="0.25"/>
<param name="rvPadBottom" value="0.25"/>
<param name="rvViaOuter" value="0.25"/>
<param name="rvViaInner" value="0.25"/>
<param name="rvMicroViaOuter" value="0.25"/>
<param name="rvMicroViaInner" value="0.25"/>
<param name="rlMinPadTop" value="10mil"/>
<param name="rlMaxPadTop" value="20mil"/>
<param name="rlMinPadInner" value="10mil"/>
<param name="rlMaxPadInner" value="20mil"/>
<param name="rlMinPadBottom" value="10mil"/>
<param name="rlMaxPadBottom" value="20mil"/>
<param name="rlMinViaOuter" value="8mil"/>
<param name="rlMaxViaOuter" value="20mil"/>
<param name="rlMinViaInner" value="8mil"/>
<param name="rlMaxViaInner" value="20mil"/>
<param name="rlMinMicroViaOuter" value="4mil"/>
<param name="rlMaxMicroViaOuter" value="20mil"/>
<param name="rlMinMicroViaInner" value="4mil"/>
<param name="rlMaxMicroViaInner" value="20mil"/>
<param name="psTop" value="-1"/>
<param name="psBottom" value="-1"/>
<param name="psFirst" value="-1"/>
<param name="psElongationLong" value="100"/>
<param name="psElongationOffset" value="100"/>
<param name="mvStopFrame" value="1"/>
<param name="mvCreamFrame" value="0"/>
<param name="mlMinStopFrame" value="4mil"/>
<param name="mlMaxStopFrame" value="4mil"/>
<param name="mlMinCreamFrame" value="0mil"/>
<param name="mlMaxCreamFrame" value="0mil"/>
<param name="mlViaStopLimit" value="0mil"/>
<param name="srRoundness" value="0"/>
<param name="srMinRoundness" value="0mil"/>
<param name="srMaxRoundness" value="0mil"/>
<param name="slThermalIsolate" value="10mil"/>
<param name="slThermalsForVias" value="0"/>
<param name="dpMaxLengthDifference" value="10mm"/>
<param name="dpGapFactor" value="2.5"/>
<param name="checkAngle" value="0"/>
<param name="checkFont" value="1"/>
<param name="checkRestrict" value="1"/>
<param name="checkStop" value="0"/>
<param name="checkValues" value="0"/>
<param name="checkNames" value="1"/>
<param name="checkWireStubs" value="1"/>
<param name="checkPolygonWidth" value="0"/>
<param name="useDiameter" value="13"/>
<param name="maxErrors" value="50"/>
</designrules>
<autorouter>
<pass name="Default">
<param name="RoutingGrid" value="50mil"/>
<param name="AutoGrid" value="1"/>
<param name="Efforts" value="0"/>
<param name="TopRouterVariant" value="1"/>
<param name="tpViaShape" value="round"/>
<param name="PrefDir.1" value="a"/>
<param name="PrefDir.2" value="0"/>
<param name="PrefDir.3" value="0"/>
<param name="PrefDir.4" value="0"/>
<param name="PrefDir.5" value="0"/>
<param name="PrefDir.6" value="0"/>
<param name="PrefDir.7" value="0"/>
<param name="PrefDir.8" value="0"/>
<param name="PrefDir.9" value="0"/>
<param name="PrefDir.10" value="0"/>
<param name="PrefDir.11" value="0"/>
<param name="PrefDir.12" value="0"/>
<param name="PrefDir.13" value="0"/>
<param name="PrefDir.14" value="0"/>
<param name="PrefDir.15" value="0"/>
<param name="PrefDir.16" value="a"/>
<param name="cfVia" value="8"/>
<param name="cfNonPref" value="5"/>
<param name="cfChangeDir" value="2"/>
<param name="cfOrthStep" value="2"/>
<param name="cfDiagStep" value="3"/>
<param name="cfExtdStep" value="0"/>
<param name="cfBonusStep" value="1"/>
<param name="cfMalusStep" value="1"/>
<param name="cfPadImpact" value="4"/>
<param name="cfSmdImpact" value="4"/>
<param name="cfBusImpact" value="0"/>
<param name="cfHugging" value="3"/>
<param name="cfAvoid" value="4"/>
<param name="cfPolygon" value="10"/>
<param name="cfBase.1" value="0"/>
<param name="cfBase.2" value="1"/>
<param name="cfBase.3" value="1"/>
<param name="cfBase.4" value="1"/>
<param name="cfBase.5" value="1"/>
<param name="cfBase.6" value="1"/>
<param name="cfBase.7" value="1"/>
<param name="cfBase.8" value="1"/>
<param name="cfBase.9" value="1"/>
<param name="cfBase.10" value="1"/>
<param name="cfBase.11" value="1"/>
<param name="cfBase.12" value="1"/>
<param name="cfBase.13" value="1"/>
<param name="cfBase.14" value="1"/>
<param name="cfBase.15" value="1"/>
<param name="cfBase.16" value="0"/>
<param name="mnVias" value="20"/>
<param name="mnSegments" value="9999"/>
<param name="mnExtdSteps" value="9999"/>
<param name="mnRipupLevel" value="10"/>
<param name="mnRipupSteps" value="100"/>
<param name="mnRipupTotal" value="100"/>
</pass>
<pass name="Follow-me" refer="Default" active="yes">
</pass>
<pass name="Busses" refer="Default" active="yes">
<param name="cfNonPref" value="4"/>
<param name="cfBusImpact" value="4"/>
<param name="cfHugging" value="0"/>
<param name="mnVias" value="0"/>
</pass>
<pass name="Route" refer="Default" active="yes">
</pass>
<pass name="Optimize1" refer="Default" active="yes">
<param name="cfVia" value="99"/>
<param name="cfExtdStep" value="10"/>
<param name="cfHugging" value="1"/>
<param name="mnExtdSteps" value="1"/>
<param name="mnRipupLevel" value="0"/>
</pass>
<pass name="Optimize2" refer="Optimize1" active="yes">
<param name="cfNonPref" value="0"/>
<param name="cfChangeDir" value="6"/>
<param name="cfExtdStep" value="0"/>
<param name="cfBonusStep" value="2"/>
<param name="cfMalusStep" value="2"/>
<param name="cfPadImpact" value="2"/>
<param name="cfSmdImpact" value="2"/>
<param name="cfHugging" value="0"/>
</pass>
<pass name="Optimize3" refer="Optimize2" active="yes">
<param name="cfChangeDir" value="8"/>
<param name="cfPadImpact" value="0"/>
<param name="cfSmdImpact" value="0"/>
</pass>
<pass name="Optimize4" refer="Optimize3" active="yes">
<param name="cfChangeDir" value="25"/>
</pass>
</autorouter>
<elements>
<element name="C1" library="capacitor-wima" library_urn="urn:adsk.eagle:library:116" package="C5B3" package3d_urn="urn:adsk.eagle:package:5433/1" value="100pF" x="91.53" y="19.22" smashed="yes" rot="R180">
<attribute name="NAME" x="94.07" y="17.442" size="1.27" layer="25" ratio="10" rot="R180"/>
<attribute name="POPULARITY" value="4" x="42" y="164" size="1.778" layer="27" rot="R180" display="off"/>
<attribute name="VALUE" x="94.07" y="22.268" size="1.27" layer="27" ratio="10" rot="R180"/>
</element>
<element name="C2" library="rcl" library_urn="urn:adsk.eagle:library:334" package="C0402" package3d_urn="urn:adsk.eagle:package:23626/2" value="0.1uF" x="8.78" y="18.92" smashed="yes" rot="R270">
<attribute name="NAME" x="7.915" y="16.555" size="1.27" layer="25" rot="R270"/>
<attribute name="POPULARITY" value="18" x="-136" y="-39.5" size="1.778" layer="27" rot="R270" display="off"/>
<attribute name="SPICEPREFIX" value="C" x="-136" y="-39.5" size="1.778" layer="27" rot="R270" display="off"/>
<attribute name="VALUE" x="6.875" y="19.555" size="1.27" layer="27" rot="R270"/>
</element>
<element name="C3" library="rcl" library_urn="urn:adsk.eagle:library:334" package="C1608" package3d_urn="urn:adsk.eagle:package:23621/2" value="1uF" x="11.28" y="19" smashed="yes" rot="R270">
<attribute name="NAME" x="12.915" y="18.635" size="1.27" layer="25" rot="R270"/>
<attribute name="POPULARITY" value="3" x="-133.5" y="-44.5" size="1.778" layer="27" rot="R270" display="off"/>
<attribute name="SPICEPREFIX" value="C" x="-133.5" y="-44.5" size="1.778" layer="27" rot="R270" display="off"/>
<attribute name="VALUE" x="11.875" y="17.135" size="1.27" layer="27" rot="R270"/>
</element>
<element name="C4" library="rcl" library_urn="urn:adsk.eagle:library:334" package="C1608" package3d_urn="urn:adsk.eagle:package:23621/2" value="1uF" x="11.08" y="62.72" smashed="yes">
<attribute name="NAME" x="10.445" y="63.355" size="1.27" layer="25"/>
<attribute name="POPULARITY" value="3" x="79.66" y="-82.06" size="1.778" layer="27" display="off"/>
<attribute name="SPICEPREFIX" value="C" x="79.66" y="-82.06" size="1.778" layer="27" display="off"/>
<attribute name="VALUE" x="10.445" y="60.815" size="1.27" layer="27"/>
</element>
<element name="C5" library="rcl" library_urn="urn:adsk.eagle:library:334" package="E5-13" package3d_urn="urn:adsk.eagle:package:23375/1" value="470uF" x="59.87" y="70.46" smashed="yes" rot="R180">
<attribute name="NAME" x="53.4946" y="66.3452" size="1.778" layer="25" ratio="10" rot="R180"/>
<attribute name="POPULARITY" value="0" x="35.74" y="194.92" size="1.778" layer="27" rot="R180" display="off"/>
<attribute name="SPICEPREFIX" value="C" x="35.74" y="194.92" size="1.778" layer="27" rot="R180" display="off"/>
<attribute name="VALUE" x="64.442" y="74.397" size="1.778" layer="27" ratio="10" rot="R180"/>
</element>
<element name="12IN" library="1935161" package="PHOENIX_1935161" value="1935161" x="31.17" y="7.19" smashed="yes">
<attribute name="AVAILABILITY" value="Unavailable" x="68" y="-116" size="1.778" layer="27" display="off"/>
<attribute name="DESCRIPTION" value=" 2 Position Wire to Board Terminal Block Horizontal with Board 0.197 _5.00mm_ Through Hole " x="68" y="-116" size="1.778" layer="27" display="off"/>
<attribute name="MF" value="Phoenix Contact" x="68" y="-116" size="1.778" layer="27" display="off"/>
<attribute name="MP" value="1935161" x="68" y="-116" size="1.778" layer="27" display="off"/>
<attribute name="PACKAGE" value="None" x="68" y="-116" size="1.778" layer="27" display="off"/>
<attribute name="PRICE" value="None" x="68" y="-116" size="1.778" layer="27" display="off"/>
</element>
<element name="24OUT" library="1935161" package="PHOENIX_1935161" value="1935161" x="93.74" y="7.19" smashed="yes">
<attribute name="AVAILABILITY" value="Unavailable" x="142" y="-116" size="1.778" layer="27" display="off"/>
<attribute name="DESCRIPTION" value=" 2 Position Wire to Board Terminal Block Horizontal with Board 0.197 _5.00mm_ Through Hole " x="142" y="-116" size="1.778" layer="27" display="off"/>
<attribute name="MF" value="Phoenix Contact" x="142" y="-116" size="1.778" layer="27" display="off"/>
<attribute name="MP" value="1935161" x="142" y="-116" size="1.778" layer="27" display="off"/>
<attribute name="PACKAGE" value="None" x="142" y="-116" size="1.778" layer="27" display="off"/>
<attribute name="PRICE" value="None" x="142" y="-116" size="1.778" layer="27" display="off"/>
</element>
<element name="R1" library="rcl" library_urn="urn:adsk.eagle:library:334" package="0207/10" package3d_urn="urn:adsk.eagle:package:23491/2" value="4700 Ohm" x="18.03" y="45.51" smashed="yes">
<attribute name="NAME" x="14.982" y="47.034" size="1.27" layer="25" ratio="10"/>
<attribute name="POPULARITY" value="81" x="95.5" y="-98" size="1.778" layer="27" display="off"/>
<attribute name="SPICEPREFIX" value="R" x="95.5" y="-98" size="1.778" layer="27" display="off"/>
<attribute name="VALUE" x="15.7694" y="44.875" size="1.27" layer="27" ratio="10"/>
</element>
<element name="R4" library="rcl" library_urn="urn:adsk.eagle:library:334" package="0207/10" package3d_urn="urn:adsk.eagle:package:23491/2" value="4700 Ohm" x="16.33" y="48.51" smashed="yes">
<attribute name="NAME" x="13.282" y="50.034" size="1.27" layer="25" ratio="10"/>
<attribute name="POPULARITY" value="81" x="106.5" y="-95" size="1.778" layer="27" display="off"/>
<attribute name="SPICEPREFIX" value="R" x="106.5" y="-95" size="1.778" layer="27" display="off"/>
<attribute name="VALUE" x="14.0694" y="47.875" size="1.27" layer="27" ratio="10"/>
</element>
<element name="TB1" library="ARDUINO_NANO" package="SHIELD_ARDUINO_NANO" value="ARDUINO_NANO" x="21.02" y="60.1" smashed="yes" rot="R90">
<attribute name="AVAILABILITY" value="Unavailable" x="51.5" y="85.5" size="1.778" layer="27" rot="R90" display="off"/>
<attribute name="DESCRIPTION" value=" ATmega4809 Arduino Nano Every with Headers AVR® AVR MCU 8-Bit Embedded Evaluation Board " x="51.5" y="85.5" size="1.778" layer="27" rot="R90" display="off"/>
<attribute name="MF" value="Arduino" x="51.5" y="85.5" size="1.778" layer="27" rot="R90" display="off"/>
<attribute name="MP" value="ARDUINO NANO" x="51.5" y="85.5" size="1.778" layer="27" rot="R90" display="off"/>
<attribute name="NAME" x="-0.88" y="50.9" size="1.778" layer="25" rot="R90"/>
<attribute name="PACKAGE" value="None" x="51.5" y="85.5" size="1.778" layer="27" rot="R90" display="off"/>
<attribute name="PRICE" value="None" x="51.5" y="85.5" size="1.778" layer="27" rot="R90" display="off"/>
<attribute name="VALUE" x="26.8" y="31.8" size="1.778" layer="27" rot="R90"/>
</element>
<element name="U$1" library="minibike" package="TO220V" value="1727-4283-ND-(N-CHANNEL_MOSFET)" x="47.95" y="21.46" smashed="yes">
<attribute name="NAME" x="42.87" y="15.4148" size="1.27" layer="25" ratio="10"/>
<attribute name="VALUE" x="42.87" y="13.84" size="1.27" layer="27" ratio="10"/>
</element>
<element name="U$2" library="minibike" package="DIP787W46P254L927H533Q8" value="UCC27524P-DUAL-GATE-DRIVER" x="11.66" y="35.7" smashed="yes" rot="R270">
<attribute name="NAME" x="11.9904" y="-20.218" size="3.500090625" layer="25" rot="R270"/>
<attribute name="VALUE" x="4.7653" y="-20.6044" size="3.357890625" layer="27" rot="R270"/>
</element>
<element name="U$3" library="minibike" package="TO220V" value="1727-4283-ND-(N-CHANNEL_MOSFET)" x="47.91" y="36.8" smashed="yes" rot="R180">
<attribute name="NAME" x="50.99" y="36.8452" size="1.27" layer="25" ratio="10" rot="R180"/>
<attribute name="VALUE" x="52.99" y="44.42" size="1.27" layer="27" ratio="10" rot="R180"/>
</element>
<element name="U$4" library="minibike" package="BARRIER_BLOCK_2_CXN" value="BARRIER_BLOCK_2_CXN" x="77.75" y="50.39" smashed="yes" rot="R270"/>
<element name="U$5" library="minibike" package="BARRIER_BLOCK_2_CXN" value="BARRIER_BLOCK_2_CXN" x="70.4" y="57.25" smashed="yes"/>
<element name="X2" library="Rembrandt Electronics - JST XH Connectors v1-0" package="JST-XH-03-PACKAGE-LONG-PAD" value="JST-XH-03-PIN-LONG-PAD" x="14.17" y="76.72" smashed="yes" rot="R180">
<attribute name="NAME" x="20.725" y="78.76" size="1.016" layer="25" ratio="10" rot="R270"/>
<attribute name="VALUE" x="18.7725" y="72.8275" size="1.016" layer="27" ratio="10" rot="R180"/>
</element>
<element name="X1" library="Rembrandt Electronics - JST XH Connectors v1-0" package="JST-XH-04-PACKAGE-ROUND-PAD" value="JST-XH-04-PIN-ROUND-PAD" x="56.02" y="3.65" smashed="yes">
<attribute name="NAME" x="49.365" y="1.61" size="1.016" layer="25" ratio="10" rot="R90"/>
<attribute name="VALUE" x="50.0175" y="7.5425" size="1.016" layer="27" ratio="10"/>
</element>
<element name="D3" library="diode" library_urn="urn:adsk.eagle:library:210" package="DO220S" package3d_urn="urn:adsk.eagle:package:43371/4" value="" x="63" y="21.5" smashed="yes">
<attribute name="NAME" x="58.428" y="15.4548" size="1.27" layer="25" ratio="10"/>
<attribute name="POPULARITY" value="0" x="63" y="21.5" size="1.778" layer="27" display="off"/>
<attribute name="VALUE" x="58.428" y="13.88" size="1.27" layer="27" ratio="10"/>
</element>
<element name="D4" library="diode" library_urn="urn:adsk.eagle:library:210" package="DO220S" package3d_urn="urn:adsk.eagle:package:43371/4" value="" x="63.5" y="37" smashed="yes" rot="R180">
<attribute name="NAME" x="68.072" y="43.0452" size="1.27" layer="25" ratio="10" rot="R180"/>
<attribute name="POPULARITY" value="0" x="63.5" y="37" size="1.778" layer="27" rot="R180" display="off"/>
<attribute name="VALUE" x="68.072" y="44.62" size="1.27" layer="27" ratio="10" rot="R180"/>
</element>
<element name="R2" library="rcl" library_urn="urn:adsk.eagle:library:334" package="0411/15" package3d_urn="urn:adsk.eagle:package:23568/2" value="" x="37.5" y="44" smashed="yes">
<attribute name="NAME" x="32.42" y="46.413" size="1.27" layer="25" ratio="10"/>
<attribute name="POPULARITY" value="2" x="37.5" y="44" size="1.778" layer="27" display="off"/>
<attribute name="SPICEPREFIX" value="R" x="37.5" y="44" size="1.778" layer="27" display="off"/>
<attribute name="VALUE" x="33.9186" y="43.365" size="1.27" layer="27" ratio="10"/>
</element>
<element name="R3" library="rcl" library_urn="urn:adsk.eagle:library:334" package="0411/15" package3d_urn="urn:adsk.eagle:package:23568/2" value="" x="10" y="25.5" smashed="yes">
<attribute name="NAME" x="4.92" y="27.913" size="1.27" layer="25" ratio="10"/>
<attribute name="POPULARITY" value="2" x="10" y="25.5" size="1.778" layer="27" display="off"/>
<attribute name="SPICEPREFIX" value="R" x="10" y="25.5" size="1.778" layer="27" display="off"/>
<attribute name="VALUE" x="6.4186" y="24.865" size="1.27" layer="27" ratio="10"/>
</element>
<element name="U$6" library="minibike" package="TO220V" value="5V-REG" x="32.5" y="21.5" smashed="yes">
<attribute name="NAME" x="27.42" y="15.4548" size="1.27" layer="25" ratio="10"/>
<attribute name="VALUE" x="27.42" y="13.88" size="1.27" layer="27" ratio="10"/>
</element>
</elements>
<signals>
<signal name="3V3">
<contactref element="TB1" pad="17"/>
</signal>
<signal name="AREF">
<contactref element="TB1" pad="18"/>
</signal>
<signal name="+5V">
<contactref element="TB1" pad="27"/>
</signal>
<signal name="12V">
<contactref element="C3" pad="1"/>
<contactref element="C2" pad="1"/>
<contactref element="U$2" pad="6"/>
<contactref element="12IN" pad="1"/>
<wire x1="28.67" y1="7.19" x2="28.67" y2="8.67" width="3" layer="16"/>
<wire x1="28.67" y1="7.19" x2="10.5" y2="25.36" width="3" layer="16"/>
<wire x1="10.5" y1="25.36" x2="10.5" y2="28.5" width="3" layer="16"/>
<wire x1="10.5" y1="28.5" x2="10.5" y2="31.655" width="1.5" layer="16"/>
<wire x1="10.5" y1="31.655" x2="10.39" y2="31.765" width="1" layer="16"/>
<via x="9" y="22.5" extent="1-16" drill="0.35" diameter="3"/>
<wire x1="9" y1="22.5" x2="10.5" y2="24" width="3" layer="16"/>
<wire x1="10.5" y1="24" x2="10.5" y2="25.36" width="3" layer="16"/>
<wire x1="9" y1="22.5" x2="9" y2="19.79" width="1" layer="1"/>
<wire x1="9" y1="19.79" x2="8.78" y2="19.57" width="1" layer="1"/>
<wire x1="9" y1="22.5" x2="9" y2="22.13" width="1" layer="1"/>
<wire x1="9" y1="22.13" x2="11.28" y2="19.85" width="1" layer="1"/>
<contactref element="U$6" pad="1"/>
<wire x1="28.67" y1="8.67" x2="28.67" y2="17.67" width="1.5" layer="16"/>
<wire x1="28.67" y1="17.67" x2="29.96" y2="18.96" width="1.5" layer="16"/>
</signal>
<signal name="INA">
<contactref element="R1" pad="2"/>
<contactref element="U$2" pad="4"/>
<contactref element="U$2" pad="2"/>
<contactref element="TB1" pad="9"/>
<wire x1="23.56" y1="52.48" x2="23.56" y2="45.96" width="1" layer="16"/>
<wire x1="23.56" y1="45.96" x2="23.11" y2="45.51" width="1" layer="16"/>
<wire x1="23.11" y1="45.51" x2="23.11" y2="41.11" width="1" layer="16"/>
<wire x1="23.11" y1="41.11" x2="18.5" y2="36.5" width="1" layer="16"/>
<wire x1="18.5" y1="36.5" x2="16.065" y2="36.5" width="1" layer="16"/>
<wire x1="16.065" y1="36.5" x2="12.93" y2="39.635" width="1" layer="16"/>
<wire x1="7.85" y1="39.635" x2="9.985" y2="37.5" width="1" layer="16"/>
<wire x1="10.795" y1="37.5" x2="12.93" y2="39.635" width="1" layer="16"/>
<wire x1="9.985" y1="37.5" x2="10.795" y2="37.5" width="1" layer="16"/>
</signal>
<signal name="GND">
<contactref element="U$1" pad="3"/>
<contactref element="R1" pad="1"/>
<contactref element="U$2" pad="3"/>
<contactref element="U$3" pad="3"/>
<contactref element="R4" pad="1"/>
<contactref element="C2" pad="2"/>
<contactref element="C5" pad="-"/>
<contactref element="U$5" pad="P$2"/>
<contactref element="C3" pad="2"/>
<contactref element="C4" pad="2"/>
<contactref element="TB1" pad="4"/>
<contactref element="TB1" pad="29"/>
<contactref element="X2" pad="1"/>
<contactref element="12IN" pad="2"/>
<contactref element="24OUT" pad="2"/>
<contactref element="X1" pad="4"/>
<polygon width="0.75" layer="1" spacing="2" isolate="1">
<vertex x="0.5" y="80"/>
<vertex x="100.5" y="80"/>
<vertex x="101" y="79.5"/>
<vertex x="101" y="-1.5"/>
<vertex x="-0.5" y="-1.5"/>
<vertex x="-1" y="-1"/>
<vertex x="-1" y="78.5"/>
</polygon>
<wire x1="16.71" y1="76.72" x2="21.72" y2="76.72" width="2" layer="16"/>
<wire x1="21.72" y1="76.72" x2="22.5" y2="77.5" width="2" layer="16"/>
<via x="22.5" y="77.5" extent="1-16" drill="0.35" diameter="3"/>
<wire x1="6.5176" y1="68.9576" x2="5.78" y2="68.22" width="1.5" layer="16"/>
<wire x1="5.78" y1="67.72" x2="5.78" y2="68.22" width="1.5" layer="16"/>
<wire x1="6.5176" y1="68.9576" x2="6.5176" y2="69.46658125" width="1.5" layer="16"/>
<via x="13" y="71" extent="1-16" drill="0.35" diameter="3"/>
<wire x1="8.05101875" y1="71" x2="6.5176" y2="69.46658125" width="1.5" layer="16"/>
<wire x1="8.05101875" y1="71" x2="13" y2="71" width="1.5" layer="16"/>
<wire x1="10.86" y1="52.48" x2="10.86" y2="55.14" width="1.5" layer="16"/>
<via x="10" y="55.5" extent="1-16" drill="0.35" diameter="3"/>
<wire x1="10" y1="55.5" x2="10.5" y2="55.5" width="1.5" layer="16"/>
<wire x1="10.5" y1="55.5" x2="10.86" y2="55.14" width="1.5" layer="16"/>
<wire x1="33.67" y1="7.19" x2="37.31" y2="7.19" width="3" layer="16"/>
<wire x1="37.31" y1="7.19" x2="37.5" y2="7" width="3" layer="16"/>
<via x="37.5" y="7" extent="1-16" drill="0.35" diameter="3"/>
<via x="91" y="69" extent="1-16" drill="0.35" diameter="3"/>
<wire x1="91.4" y1="61.25" x2="91.4" y2="68.6" width="5" layer="16"/>
<wire x1="91.4" y1="68.6" x2="91" y2="69" width="4" layer="16"/>
<wire x1="96.24" y1="7.19" x2="96.24" y2="3.74" width="4" layer="16"/>
<wire x1="96.24" y1="3.74" x2="96" y2="3.5" width="4" layer="16"/>
<via x="96" y="3.5" extent="1-16" drill="0.35" diameter="3"/>
<wire x1="59.83" y1="3.65" x2="62.35" y2="3.65" width="1" layer="16"/>
<wire x1="62.35" y1="3.65" x2="62.5" y2="3.5" width="1" layer="16"/>
<via x="62.5" y="3.5" extent="1-16" drill="0.35" diameter="3"/>
<via x="10" y="42" extent="1-16" drill="0.35" diameter="2"/>
<wire x1="10" y1="42" x2="10.39" y2="41.61" width="1.5" layer="16"/>
<wire x1="10.39" y1="41.61" x2="10.39" y2="39.635" width="1.5" layer="16"/>
<wire x1="57.33" y1="70.46" x2="53.54" y2="70.46" width="2" layer="16"/>
<wire x1="53.54" y1="70.46" x2="53.5" y2="70.5" width="2" layer="16"/>
<via x="53.5" y="70.5" extent="1-16" drill="0.35" diameter="3"/>
<wire x1="11.25" y1="48.51" x2="10.76" y2="49" width="2" layer="1"/>
<wire x1="10.76" y1="49" x2="10.5" y2="49" width="2" layer="1"/>
<wire x1="12.95" y1="45.51" x2="12.5" y2="45.96" width="2" layer="1"/>
<wire x1="12.5" y1="45.96" x2="12.5" y2="46" width="2" layer="1"/>
<contactref element="U$6" pad="2"/>
<wire x1="11.28" y1="18.15" x2="8.78" y2="18.27" width="0" layer="19" extent="1-1"/>
</signal>
<signal name="5V">
<contactref element="C4" pad="1"/>
<contactref element="TB1" pad="30"/>
<contactref element="X2" pad="3"/>
<wire x1="35.25" y1="41.75" x2="43" y2="49.5" width="1.5" layer="1"/>
<wire x1="43" y1="49.5" x2="43" y2="57" width="1.5" layer="1"/>
<wire x1="43" y1="57" x2="41" y2="59" width="1.5" layer="1"/>
<via x="5.5" y="63" extent="1-16" drill="0.35" diameter="3"/>
<wire x1="5.5" y1="63" x2="8" y2="60.5" width="1.5" layer="1"/>
<wire x1="8" y1="60.5" x2="9.5" y2="59" width="1.5" layer="1"/>
<wire x1="41" y1="59" x2="9.5" y2="59" width="1.5" layer="1"/>
<wire x1="3.24" y1="67.72" x2="3.24" y2="64.76" width="1.5" layer="16"/>
<wire x1="5" y1="63" x2="3.24" y2="64.76" width="1.5" layer="16"/>
<wire x1="5" y1="63" x2="5.5" y2="63" width="1.5" layer="16"/>
<wire x1="4.5" y1="72" x2="3.24" y2="70.74" width="1.5" layer="16"/>
<wire x1="3.24" y1="70.74" x2="3.24" y2="67.72" width="1.5" layer="16"/>
<wire x1="10.23" y1="62.72" x2="8.01" y2="60.5" width="1" layer="1"/>
<wire x1="8.01" y1="60.5" x2="8" y2="60.5" width="1" layer="1"/>
<contactref element="X1" pad="3"/>
<wire x1="4.5" y1="72" x2="9.22" y2="76.72" width="1" layer="16"/>
<wire x1="9.22" y1="76.72" x2="11.63" y2="76.72" width="1" layer="16"/>
<wire x1="54" y1="8.5" x2="46.5" y2="8.5" width="1" layer="16"/>
<wire x1="54" y1="8.5" x2="57.29" y2="5.21" width="1" layer="16"/>
<wire x1="57.29" y1="5.21" x2="57.29" y2="3.65" width="1" layer="16"/>
<contactref element="U$6" pad="3"/>
<wire x1="36.04" y1="18.96" x2="35.04" y2="18.96" width="1" layer="16"/>
<wire x1="46.5" y1="8.5" x2="36.04" y2="18.96" width="1" layer="16"/>
<wire x1="35.04" y1="18.96" x2="35.25" y2="19.17" width="2" layer="1"/>
<wire x1="35.25" y1="41.75" x2="35.25" y2="19.17" width="2" layer="1"/>
</signal>
<signal name="N$1">
<contactref element="U$3" pad="1"/>
<contactref element="R2" pad="2"/>
<wire x1="50.45" y1="42" x2="50.45" y2="39.34" width="2" layer="16"/>
<wire x1="45.12" y1="44" x2="48.45" y2="44" width="2" layer="16"/>
<wire x1="48.45" y1="44" x2="50.45" y2="42" width="2" layer="16"/>
</signal>
<signal name="ENA">
<contactref element="U$2" pad="8"/>
<contactref element="U$2" pad="1"/>
<contactref element="R4" pad="2"/>
<contactref element="TB1" pad="8"/>
<wire x1="21.02" y1="52.48" x2="21.41" y2="52.09" width="1" layer="16"/>
<wire x1="21.41" y1="52.09" x2="21.41" y2="48.51" width="1" layer="16"/>
<wire x1="21.41" y1="48.51" x2="21.41" y2="47.91" width="1" layer="16"/>
<wire x1="15.47" y1="41.97" x2="15.47" y2="39.635" width="1" layer="16"/>
<wire x1="21.41" y1="47.91" x2="15.47" y2="41.97" width="1" layer="16"/>
<wire x1="15.47" y1="41.97" x2="13.03" y2="41.97" width="1" layer="16"/>
<wire x1="13.03" y1="41.97" x2="10.5" y2="44.5" width="1" layer="16"/>
<wire x1="7.5" y1="44.5" x2="4.5" y2="41.5" width="1" layer="16"/>
<wire x1="4.5" y1="41.5" x2="4.5" y2="37.5" width="1" layer="16"/>
<wire x1="4.5" y1="37.5" x2="7.5" y2="34.5" width="1" layer="16"/>
<wire x1="7.5" y1="34.5" x2="14" y2="34.5" width="1" layer="16"/>
<wire x1="14" y1="34.5" x2="15.47" y2="33.03" width="1" layer="16"/>
<wire x1="15.47" y1="33.03" x2="15.47" y2="31.765" width="1" layer="16"/>
<wire x1="10.5" y1="44.5" x2="7.5" y2="44.5" width="1" layer="16"/>
</signal>
<signal name="M-">
<contactref element="U$1" pad="2"/>
<contactref element="U$3" pad="2"/>
<contactref element="C1" pad="2"/>
<contactref element="U$4" pad="P$2"/>
<contactref element="D3" pad="A"/>
<contactref element="D4" pad="A"/>
<wire x1="81.75" y1="29.39" x2="81.25" y2="28.89" width="15" layer="16"/>
<wire x1="81.25" y1="28.89" x2="73.11" y2="28.89" width="15" layer="16"/>
<wire x1="73.11" y1="28.89" x2="72.61" y2="29.39" width="15" layer="16"/>
<wire x1="72.61" y1="29.39" x2="72" y2="30" width="15" layer="16"/>
<wire x1="72.61" y1="29.39" x2="50.61" y2="29.39" width="10" layer="16"/>
<wire x1="47.91" y1="39.34" x2="47.91" y2="34.84" width="2" layer="16"/>
<wire x1="81.75" y1="29.39" x2="88.99" y2="22.15" width="2" layer="16"/>
<wire x1="88.99" y1="22.15" x2="88.99" y2="19.22" width="2" layer="16"/>
<wire x1="47.95" y1="25.95" x2="47.95" y2="18.92" width="2" layer="16"/>
<wire x1="47.91" y1="34.84" x2="50" y2="32.75" width="2" layer="16"/>
<wire x1="50" y1="32.75" x2="50" y2="28" width="2" layer="16"/>
<wire x1="50" y1="28" x2="47.95" y2="25.95" width="2" layer="16"/>
<wire x1="65.54" y1="18.96" x2="66" y2="19.42" width="4" layer="16"/>
<wire x1="66" y1="19.42" x2="66" y2="28" width="4" layer="16"/>
<wire x1="66" y1="28" x2="68" y2="30" width="4" layer="16"/>
<wire x1="68" y1="30" x2="72" y2="30" width="4" layer="16"/>
<wire x1="60.96" y1="39.54" x2="58" y2="36.58" width="4" layer="16"/>
<wire x1="58" y1="36.58" x2="58" y2="30" width="4" layer="16"/>
<wire x1="50.61" y1="29.39" x2="58" y2="30" width="0" layer="19" extent="16-16"/>
<wire x1="47.91" y1="39.34" x2="50.61" y2="29.39" width="0" layer="19" extent="16-16"/>
</signal>
<signal name="N$3">
<contactref element="U$2" pad="5"/>
<contactref element="R3" pad="1"/>
<wire x1="2.38" y1="26.295" x2="2.38" y2="25.5" width="2" layer="16"/>
<wire x1="7.85" y1="31.765" x2="2.38" y2="26.295" width="2" layer="16"/>
</signal>
<signal name="N$7">
<contactref element="U$1" pad="1"/>
<wire x1="45.41" y1="18.92" x2="45.41" y2="21.13676875" width="2" layer="16"/>
<wire x1="45.41" y1="21.13676875" x2="38.91" y2="27.636765625" width="2" layer="16"/>
<wire x1="29.0983125" y1="27.5183125" x2="38.91" y2="27.636765625" width="2" layer="16"/>
<contactref element="R3" pad="2"/>
<wire x1="17.62" y1="25.5" x2="27.08" y2="25.5" width="2" layer="16"/>
<wire x1="27.08" y1="25.5" x2="29.0983125" y2="27.5183125" width="2" layer="16"/>
</signal>
<signal name="N$8">
<contactref element="U$2" pad="7"/>
<wire x1="22.5" y1="31.5" x2="22.5" y2="37" width="2" layer="16"/>
<wire x1="22.5" y1="31.5" x2="20" y2="29" width="2" layer="16"/>
<wire x1="20" y1="29" x2="15" y2="29" width="2" layer="16"/>
<wire x1="15" y1="29" x2="12.93" y2="31.07" width="2" layer="16"/>
<wire x1="12.93" y1="31.07" x2="12.93" y2="31.765" width="2" layer="16"/>
<contactref element="R2" pad="1"/>
<wire x1="29.5" y1="44" x2="29.88" y2="44" width="2" layer="16"/>
<wire x1="22.5" y1="37" x2="29.5" y2="44" width="2" layer="16"/>
</signal>
<signal name="24V">
<contactref element="C1" pad="1"/>
<contactref element="C5" pad="+"/>
<contactref element="U$4" pad="P$1"/>
<contactref element="U$5" pad="P$1"/>
<contactref element="24OUT" pad="1"/>
<contactref element="D3" pad="C"/>
<contactref element="D4" pad="C"/>
<wire x1="78.4" y1="74.25" x2="76.9" y2="72.75" width="15" layer="16"/>
<wire x1="76.9" y1="72.75" x2="76.9" y2="56.74" width="15" layer="16"/>
<wire x1="91.25" y1="42.39" x2="76.9" y2="56.74" width="15" layer="16"/>
<wire x1="91.25" y1="42.39" x2="94.75" y2="42.39" width="15" layer="16"/>
<wire x1="94.07" y1="19.22" x2="94" y2="19.29" width="5" layer="16"/>
<wire x1="94" y1="41.64" x2="94.75" y2="42.39" width="5" layer="16"/>
<wire x1="94" y1="19.29" x2="94" y2="41.64" width="5" layer="16"/>
<wire x1="94.07" y1="19.22" x2="94.07" y2="14.07" width="5" layer="16"/>
<wire x1="91.24" y1="11.24" x2="91.24" y2="7.19" width="5" layer="16"/>
<wire x1="94.07" y1="14.07" x2="91.24" y2="11.24" width="5" layer="16"/>
<wire x1="62.41" y1="70.46" x2="74.61" y2="70.46" width="5" layer="16"/>
<wire x1="74.61" y1="70.46" x2="78.4" y2="74.25" width="5" layer="16"/>
<wire x1="66.04" y1="39.54" x2="74.5" y2="48" width="4" layer="16"/>
<wire x1="74.5" y1="48" x2="80" y2="48" width="4" layer="16"/>
<wire x1="80" y1="48" x2="82.5" y2="50.5" width="4" layer="16"/>
<wire x1="60.46" y1="18.96" x2="60.46" y2="11.54" width="4" layer="16"/>
<wire x1="60.76" y1="11.24" x2="91.24" y2="11.24" width="4" layer="16"/>
<wire x1="60.46" y1="11.54" x2="60.76" y2="11.24" width="4" layer="16"/>
<wire x1="94.75" y1="42.39" x2="82.5" y2="50.5" width="0" layer="19" extent="16-16"/>
</signal>
<signal name="N$9">
<contactref element="TB1" pad="19"/>
<contactref element="X2" pad="2"/>
<wire x1="31.18" y1="71.22898125" x2="28.954490625" y2="73.454490625" width="1.5" layer="16"/>
<wire x1="31.18" y1="71.22898125" x2="31.18" y2="67.72" width="1.5" layer="16"/>
<wire x1="14.17" y1="76.72" x2="14.17" y2="74.33" width="2" layer="16"/>
<wire x1="15.045509375" y1="73.454490625" x2="28.954490625" y2="73.454490625" width="2" layer="16"/>
<wire x1="14.17" y1="74.33" x2="15.045509375" y2="73.454490625" width="2" layer="16"/>
</signal>
</signals>
<mfgpreviewcolors>
<mfgpreviewcolor name="soldermaskcolor" color="0xC8008000"/>
<mfgpreviewcolor name="silkscreencolor" color="0xFFFEFEFE"/>
<mfgpreviewcolor name="backgroundcolor" color="0xFF282828"/>
<mfgpreviewcolor name="coppercolor" color="0xFFFFBF00"/>
<mfgpreviewcolor name="substratecolor" color="0xFF786E46"/>
</mfgpreviewcolors>
</board>
</drawing>
<compatibility>
<note version="6.3" minversion="6.2.2" severity="warning">
Since Version 6.2.2 text objects can contain more than one line,
which will not be processed correctly with this version.
</note>
<note version="8.2" severity="warning">
Since Version 8.2, EAGLE supports online libraries. The ids
of those online libraries will not be understood (or retained)
with this version.
</note>
<note version="8.3" severity="warning">
Since Version 8.3, EAGLE supports URNs for individual library
assets (packages, symbols, and devices). The URNs of those assets
will not be understood (or retained) with this version.
</note>
<note version="8.3" severity="warning">
Since Version 8.3, EAGLE supports the association of 3D packages
with devices in libraries, schematics, and board files. Those 3D
packages will not be understood (or retained) with this version.
</note>
</compatibility>
</eagle>
